[
		{
			"questn": "How do I get connected to this Site?",
			"answer": "<p><b>AXP Application Developers: </b><br/><br/>E2 Access:<br/>We currently add your ADS id to E2 LDAP (FIMS), and then you can login with your ADS id.<br/><br/>E3 Access:<br/>You can login now.<br/><br/><br/><b>AXP Platform Owners/Managers</b><br/><br/>E2(User Acceptance Testing) Access:<br/>We currently add your ADS id to E2 (FIMS), associate your ADS id to one or more AXP entities (i.e, Company Platform) in the Portal, and apply appropriate role.<br/>We will inform you when you can login.<br/><br/>E3 Access:<br/>We will associate your ADS id to one or more AXP entities (i.e., Company Platform) in the Portal, and apply appropriate role.<br/>We will inform you when you can login.</p>"
		},

		{
			"questn": "What can I do with this Site?",
			"answer": "<p><b>As an Application Developer:</b><br/>(1) Read business and API documentation<br/>(2) Play with API using Try Now feature<br/>(3) Request client Id/Secret for consuming API/service (via Create Application)<br/></p><p><b>As an Organization Admin:</b><br/>(1) Manage business and API documentation<br/>(2) Add/Inactivate Org Users<br/>(3) Add Org Products<br/></p><p><b>As a Technical Writer:</b><br/>(1) Add/Edit business and API documentation</p>"
		},

		{
			"questn": "What are the major components of API platform we are connecting?",
			"answer": "<p><b>Service -</b> Service exposing capabilities for a consumer. In this context, that service would generally be an AMEX provisioned one.</p><br/><p><b>API (Application Programming Interface) - </b>In the context of API platform, we are exposing an API similar to how a \"reverse proxy\" works. However, the API Gateway involved has a lot more capabilities than what you would typically get with proxies.</p><br/><p><b>Product  -</b> A logical container of API/Service capabilities. It may contain multiple services.<br/>Example: A product called \"APIs for Merchants,\" could contain a bundle of services that a Merchant can interact with, including capabilities for shopping carts, card member metadata, location services, reporting/analytics, etc.</p><p><b>Application  -</b> A consumer of an API/Service. An application could be an external web application, mobile application, or even as part of another service itself.</p>"
		},

		{
			"questn": "How do I request access to an API Product?",
			"answer": "<p>One you are a registered and activated user:<br/><br/>Create an Application. This will give you pre-approved Sandbox key/secret. In order to get access to live service(s), we need you to request that access from the My Apps page. Once approved, we will provision access key/secret.</p>"
		},

		{
			"questn": "How long is my key valid for?",
			"answer": "<p>Application keys currently do not have default expiration. However, we may from time-to-time review the need to evaluate key usage (i.e., dormant usage).</p>"
		},

		{
			"questn": "What does the Sandbox do for me?",
			"answer": "<p>Having Sandbox access allows a Developer to interact with Service Stubs (simulated) or Test Services (actual backend test service, like on LISA). This allows a Developer to test their application more affectively, creating better code.</p>"
		},

		{
			"questn": "Does API Platform have standard maintenance windows?",
			"answer": "<p>We do follow maintenance windows for various API Platform components. Some components are highly available, and that design helps ensure zero downtime. We do our best to keep API Platform up and running.</p>"
		},

		{
			"questn": "How will my personal information be used?",
			"answer": "<p>We do encrypt PII data, just like we do for external Portal. This site is classified as AXP Internal, and please follow AXP guidelines for that.</p>"
		},

		{
			"questn": "I have an idea for an API that American Express should provide. Whom do I contact for this?",
			"answer": "<p>Your feedback is appreciated. Feel free to contact Infrastructure Architecture & Services. Let’s chat! <br/><br/><b>Team Site on Square:<b><br/><a href='https://teams.aexp.com/sites/integration/SitePages/Gateway_API.aspx' target='_blank'>https://teams.aexp.com/sites/integration/SitePages/Gateway_API.aspx</a> <br/><br/><b>API Playbook:</b> <br/><a href='https://wiki.mps.intra.aexp.com/display/IAS/API+Playbook' target='_blank'>https://wiki.mps.intra.aexp.com/display/IAS/API+Playbook,/a> </p>"
		},

		{
			"questn": "Where do I go to learn more about APIs?",
			"answer": "<p>A great place to start is the API Playbook. Among other information, you can learn about design guidelines and Enterprise API Platform.<br/><br/> <b><a href='https://enterprise-confluence.aexp.com/confluence/display/IAS/API+Playbook' target='_blank'>https://enterprise-confluence.aexp.com/confluence/display/IAS/API+Playbook</a> <b/></p>"
		},

		{
			"questn": "Where do I go to get involved in API community?",
			"answer": "<p>The API Community of Technical Practice (CTP) is a place for everyone working on APIs to share, help each other, and collaborate on Open Source APIs inside the firewall.<br/><br/><b><a href='https://enterprise-confluence.aexp.com/confluence/display/AC/API+CTP+-+Welcome' target='_blank'>https://enterprise-confluence.aexp.com/confluence/display/AC/API+CTP+-+Welcome</a></b></p>"
		},

		{
			"questn": "What is this Company Token for?",
			"answer": "<p><i><b>Internal Portal Language</b></i> <br/>Chances are, we have given you a Company Token to give to your external business partner.<br/><br/> With this token, a partner Application Developer (or other role) can associate themselves to their pre-configured partner organization during Portal self-registration process. This allows us to tie external users to their appropriate organization, thereby keeping their developers together. <br/><br/>Each partner has their own unique token.  We do have the ability to regenerate tokens, if they are lost or compromised.</p>"
		},

		{
			"questn": "What is Swagger?",
			"answer": "<p>Swagger is a representation of your RESTful API. With a Swagger-enabled API, you get interactive documentation, client SDK generation and discoverability.<br/><br/> We have included the <b><i>Swagger Editor</i></b> and on this site (Menu), so that you can document your API. In addition, we have enhanced capabilities such as creating server and client side code using Swagger UI and Swagger CodeGen. Getting you to workable code faster is the goal. <br/><br/>For more information about Swagger Tools and associated documentation, here is public website: <a href='http://swagger.io/tools' target='_blank'>http://swagger.io/tools</a></p>"
		},

		{
			"questn": "I am a Federated Admin.  What can I do with this site?",
			"answer": "<p>As a Federated Admin (aka, Platform Admin), you have elevated rights to:<br/><br/> 1. Add Users in your Org (Platform) - See <b>How do I Add User?</b><br/><br/> 2. Activate/Inactivate Users in your Org - See <b>How do I Activate/Inactivate User?</b><br/><br/> 3. Add Portal Products to your Org (private) - See <b>How do I add Portal Products?</b><br/><br/> 4. Add Portal Products that are AXP Public - See <b>How do I add Portal Products?</b><br><br/> 5. Create and manage Business Documentation - See <b>How to I create/manage Business Documentation?</b><br/><br/> 6. Create and manage API Specifications (Swagger) - See <b>How do I use Swagger Editor?</b><br/><br/> 7. Register Applications (if you are a Developer too) - See <b>How do I register an App – Application?</b></p>"
		},

		{
			"questn": "How do I Add User?",
			"answer": "<p> 1. From Admin Menu/“Activate/Inactivate Users” or “Manage Users” Menu.<br/> 2. Choose Company Platform <br/><img src='https://web.aexp-static.com/EnterpriseAPIPortal/images/faq/add-user1.jpg'><br/><br/> 3. Click on “Add User to this platform” <br/> <img src='https://web.aexp-static.com/EnterpriseAPIPortal/images/faq/add-user2.jpg'><br/><br/> 4. Type in ADS ID, and click Search icon.<br/> <img src='https://web.aexp-static.com/EnterpriseAPIPortal/images/faq/add-user3.jpg'><br/><br/> 5. Once the User is found, Choose the appropriate Role for the User <br/><img src='https://web.aexp-static.com/EnterpriseAPIPortal/images/faq/add-user4.jpg'> <br/><br/> 6. Click “Add User” to add to system.<br/> </p>"
		},

		{
			"questn": "How do I Activate/Inactivate User?",
			"answer": "<p> 1. From “Activate/Inactivate Users” or “Manage Users” Menu.<br/> 2. Choose Company Platform<br/><img src='https://web.aexp-static.com/EnterpriseAPIPortal/images/faq/add-user5.jpg'><br/><br/> 3. A List of Users for Org is shown <br/><img src='https://web.aexp-static.com/EnterpriseAPIPortal/images/faq/add-user6.jpg'> <br/><br/> 4. Click on the checkbox for the User you want to modify, and Click on “Click to change status”<br/> <img src='https://web.aexp-static.com/EnterpriseAPIPortal/images/faq/add-user7.jpg'><br/><br/>  5. The status of the User will switch to the opposite of what it was before.<br/><img src='https://web.aexp-static.com/EnterpriseAPIPortal/images/faq/add-user8.jpg'><br/><br/></p>"
		},

		{
			"questn": "How do I add Portal Products?",
			"answer": "<p> 1. From Admin Menu, Click on “+Add Products” <br/><br/> 2. Choose the Company Platform you want to add Product too<br/><br/> 3. Type in Product Name, Description<br/><br/> 4. For Location, you can type “NA” for now<br/><br/> 5. Choose the Category of the Product, either Private or Public (All AXP Users see)<br/><img src='https://web.aexp-static.com/EnterpriseAPIPortal/images/faq/add-user9.jpg'><br/><br/> 6. Click on “Choose File” button to be able to upload Swagger JSON/YAML file (your API Specs)<br/><br/> 7. Choose “Link Apigee Product,” if your API Services are on REST POA Gateway.<br/><br/> 8. Select the Apigee Products you want to connect with. You can choose single or multiples.<br/><img src='https://web.aexp-static.com/EnterpriseAPIPortal/images/faq/add-user10.jpg'><br/><br/> 9. Select “Click to Add Products” to complete this task.<br/></p>"
		},

		{
			"questn": "How to I create/manage Business Documentation?",
			"answer": "<p>Business Documentation provides a Developer with the application semantics of an API Service. Knowing about business terminology, how an end consumer interacts with a service, who to contact for more information, etc. helps a Developer code better for end consumer needs.<br/><br/> <b>Pre-Requisite(s):</b> <br/> I. A Portal Product Exists.</li></ul><br/>II. You have a Role that allows this functionality (i.e., Tech Writer, Admin) <br/><br/><b>Create New Business Document:</b><br/> 1. From Products Page, Choose product category (PUBLIC PRODUCTS, YOUR PRODUCTS).<br/> 2. Find the Product you want to add Documentation to<br/> 3. Click on Documentation button<br/> <img src='https://web.aexp-static.com/EnterpriseAPIPortal/images/faq/add-user11.jpg'><br/><br/> 4. By Default, the system will show you an Example Document. Feel free to get some ideas from this.  In the end, make this Document yours. Whatever you need to communicate to the Developer that the API Specs (i.e., Swagger) will not.<br/><img src='https://web.aexp-static.com/EnterpriseAPIPortal/images/faq/add-user12.jpg'><br/><br/> 5. The Left Nav sections, with exception of API Reference (Swagger Specs), are exposed by identifying a section title as “Heading 1.”<br/> 6. The Editor has lots of features, too many to mention in an FAQ.<br/> 7. If you want Images to be part of documentation, they either:<br/>&nbsp;&nbsp;&nbsp;&nbsp;&nbsp;&nbsp; a. Need to be fully qualified web images, OR<br/>&nbsp;&nbsp;&nbsp;&nbsp;&nbsp;&nbsp; b.They are hosted on iCM(Interactive Content Management). This is where we host much of our static web content, and we have an account to do so. You can get more information on the Square:<a href='https://square.aexp.com/StaffGroups/AXPInteractive/CustomerExp/iCM/Pages/iCM.aspx' target='_blank'>https://square.aexp.com/StaffGroups/AXPInteractive/CustomerExp/iCM/Pages/iCM.aspx</a><br/>For images on the Editor, we expand them automatically for ease of view.<br/> 8. High level, we support the following document lifecycle:  Pre-Beta (“Alpha”), Beta, Production.<br/><br/><br/>As we roll out more enhancements to versioning (i.e., check-in/check-out), we hope to simplify the document process.<br/><br/>Regarding Document Versioning, the following detailed workflow may help you. <br/> <img src='https://web.aexp-static.com/EnterpriseAPIPortal/images/faq/add-user13.jpg'></p>"
		},

		{
			"questn": "How do I use Swagger Editor?",
			"answer": "<p> 1. From Homepage, click on SWAGGER EDITOR menu.<br/> 2. A new window should open up, and you can use the Custom AXP Swagger Editor.<br/> 3. High level, you can document your API, and even Generate Server or Client Code from the specifications.<br/> 4. See What is Swagger? FAQ item for more additional information about Swagger (i.e., link to the specification).<br/> 5. When you are finished with the Specs, you can download the JSON/YAML file for later usage with Portal Product create/edit.<br/></p>"
		},

		{
			"questn": "How do I register an App – Application?",
			"answer": "<p>An Application registration allows a User-Developer to connect their application to a Portal Product or Products.<br/><br/>&nbsp;&nbsp;&nbsp;&nbsp;&nbsp; 1. From homepage, Click on MY APPS <br/>&nbsp;&nbsp;&nbsp;&nbsp;&nbsp; 2. Click on “Create (Register) New App” <br/><img src='https://web.aexp-static.com/EnterpriseAPIPortal/images/faq/add-user15.jpg'><br/><br/>&nbsp;&nbsp;&nbsp;&nbsp;&nbsp; 3. Enter Application Name (no spaces) <br/>&nbsp;&nbsp;&nbsp;&nbsp;&nbsp; 4. Select the Platform for API Provider, and select the corresponding Product(s) you want to associate App to (Stay tuned for enhancements).<br/><img src='https://web.aexp-static.com/EnterpriseAPIPortal/images/faq/add-user17.jpg'><br/><br/>&nbsp;&nbsp;&nbsp;&nbsp;&nbsp; 5. Enter callback url (currently is required, type a mock one if needed).<br/>&nbsp;&nbsp;&nbsp;&nbsp;&nbsp; 6. Enter a description for your App.<br/><img src='https://web.aexp-static.com/EnterpriseAPIPortal/images/faq/add-user14.jpg'><br/><br/>&nbsp;&nbsp;&nbsp;&nbsp;&nbsp; 7. Click Submit to request App registration, or Click Cancel to exit without registration.<br/>&nbsp;&nbsp;&nbsp;&nbsp;&nbsp; 8. Upon successful registration, you should see the App listed in My Apps view. An example:<br/><img src='https://web.aexp-static.com/EnterpriseAPIPortal/images/faq/add-user18.jpg'></p>"
		},

		{
			"questn": "How do I get help?",
			"answer": "<p> 1. Visit a specific API Product to get reference material for what you are developing code for.<br/> 2. Read this FAQ to find commonly asked questions.<br/> 3. Send us a note, identifying the issue you are having (see site links).</p>"
		},

		{
			"questn": "I am getting some unusual errors (i.e., 500 level errors) when consuming API?  What do I do?",
			"answer": "<p>There are several systems interconnected, and the root cause of error we would need to research. Please send us a description of problem.<br/>Be sure to include information such as your application name, what product is involved, what error message says, any URIs you may know about, etc.</p>"
		},

		{
			"questn": "I see some issue (i.e., incorrect wording, confusion) with documentation.  How do I report it?",
			"answer": "<p>We appreciate any input you can provide. Please send us a description of issue, and we can route it to the appropriate team exposing that documentation.</p>"
		}
]
