<?xml version="1.0" encoding="utf-8"?>
<!-- Generator: Adobe Illustrator 18.0.0, SVG Export Plug-In . SVG Version: 6.00 Build 0)  -->
<!DOCTYPE svg PUBLIC "-//W3C//DTD SVG 1.1//EN" "http://www.w3.org/Graphics/SVG/1.1/DTD/svg11.dtd">
<svg version="1.1" id="Layer_1" xmlns="http://www.w3.org/2000/svg" xmlns:xlink="http://www.w3.org/1999/xlink" x="0px" y="0px"
	 width="52px" height="52px" viewBox="0 0 52 52" enable-background="new 0 0 52 52" xml:space="preserve">
<g id="_x33_8._Up">
	<path d="M46.56055,34.68945l-19.5-19.5c-0.58594-0.58594-1.53516-0.58594-2.12109,0l-19.5,19.5
		c-0.58594,0.58594-0.58594,1.53516,0,2.12109C5.73242,37.10352,6.11621,37.25,6.5,37.25s0.76758-0.14648,1.06055-0.43945
		L26,18.37109l18.43945,18.43945C44.73242,37.10352,45.11621,37.25,45.5,37.25s0.76758-0.14648,1.06055-0.43945
		C47.14648,36.22461,47.14648,35.27539,46.56055,34.68945z"/>
</g>
</svg>
