<?xml version="1.0" encoding="utf-8"?>
<!-- Generator: Adobe Illustrator 18.0.0, SVG Export Plug-In . SVG Version: 6.00 Build 0)  -->
<!DOCTYPE svg PUBLIC "-//W3C//DTD SVG 1.1//EN" "http://www.w3.org/Graphics/SVG/1.1/DTD/svg11.dtd">
<svg version="1.1" id="Layer_1" xmlns="http://www.w3.org/2000/svg" xmlns:xlink="http://www.w3.org/1999/xlink" x="0px" y="0px"
	 width="52px" height="52px" viewBox="0 0 52 52" enable-background="new 0 0 52 52" xml:space="preserve">
<g id="_x34_1._Right">
	<path d="M36.81055,24.93945l-19.5-19.5c-0.58594-0.58594-1.53516-0.58594-2.12109,0c-0.58594,0.58545-0.58594,1.53564,0,2.12109
		L33.62891,26L15.18945,44.43945c-0.58594,0.58594-0.58594,1.53516,0,2.12109C15.48242,46.85352,15.86621,47,16.25,47
		c0.38379,0,0.76758-0.14648,1.06055-0.43945l19.5-19.5C37.39648,26.4751,37.39648,25.5249,36.81055,24.93945z"/>
</g>
</svg>
