<?xml version="1.0" encoding="utf-8"?>
<!-- Generator: Adobe Illustrator 18.0.0, SVG Export Plug-In . SVG Version: 6.00 Build 0)  -->
<!DOCTYPE svg PUBLIC "-//W3C//DTD SVG 1.1//EN" "http://www.w3.org/Graphics/SVG/1.1/DTD/svg11.dtd">
<svg version="1.1" id="Layer_1" xmlns="http://www.w3.org/2000/svg" xmlns:xlink="http://www.w3.org/1999/xlink" x="0px" y="0px"
	 width="52px" height="52px" viewBox="0 0 52 52" enable-background="new 0 0 52 52" xml:space="preserve">
<g id="_x31_3._Neutral">
	<path d="M26,5c11.57944,0,21,9.42056,21,21s-9.42056,21-21,21S5,37.57944,5,26S14.42056,5,26,5 M26,2C12.74516,2,2,12.74516,2,26
		s10.74516,24,24,24s24-10.74517,24-24S39.25483,2,26,2L26,2z"/>
	<circle cx="26" cy="35.625" r="1.75"/>
	<path d="M26,32.125c-0.82812,0-1.5-0.67188-1.5-1.5v-14c0-0.82861,0.67188-1.5,1.5-1.5s1.5,0.67139,1.5,1.5v14
		C27.5,31.45312,26.82812,32.125,26,32.125z"/>
</g>
</svg>
