<?xml version="1.0" encoding="utf-8"?>
<!-- Generator: Adobe Illustrator 18.0.0, SVG Export Plug-In . SVG Version: 6.00 Build 0)  -->
<!DOCTYPE svg PUBLIC "-//W3C//DTD SVG 1.1//EN" "http://www.w3.org/Graphics/SVG/1.1/DTD/svg11.dtd">
<svg version="1.1" id="Layer_1" xmlns="http://www.w3.org/2000/svg" xmlns:xlink="http://www.w3.org/1999/xlink" x="0px" y="0px"
	 width="52px" height="52px" viewBox="0 0 52 52" enable-background="new 0 0 52 52" xml:space="preserve">
<g id="_x31_7._Tag">
	<path d="M33.96811,15.00035c-1.65208,0.00637-2.96171,1.40262-2.96809,3.0547c-0.00637,1.65208,1.37982,2.95098,3.03189,2.94461
		S36.99363,19.59703,37,17.94495C36.91942,16.29321,35.53323,14.99431,33.96811,15.00035z"/>
	<path d="M24.60645,46.97266c-0.86816,0-1.68555-0.33887-2.30078-0.9541L5.95312,29.66602C5.33838,29.05176,5,28.23438,5,27.36523
		s0.33838-1.68604,0.95312-2.30078L25.0371,5.98095c0.76367-0.76416,1.84668-1.1084,2.93848-0.89014l13.62305,2.73145
		c1.28516,0.25781,2.28516,1.25342,2.54883,2.53662l2.78613,13.56543c0.2207,1.07373-0.11035,2.1792-0.88672,2.95557
		L26.90723,46.01855C26.29492,46.63379,25.47656,46.97266,24.60645,46.97266z M27.36035,8.03223
		c-0.10059,0-0.1582,0.02588-0.20215,0.06982L8.07422,27.18555C8.0127,27.24707,8,27.31738,8,27.36523
		s0.0127,0.11816,0.07373,0.17871l16.35303,16.35352c0.125,0.125,0.23633,0.12402,0.35742,0.00098l19.1416-19.13965
		c0.06055-0.06055,0.08594-0.14648,0.06934-0.22949l-2.78711-13.56738c-0.02051-0.10059-0.09863-0.17822-0.19922-0.19824
		L27.3877,8.03271C27.37793,8.03223,27.36914,8.03223,27.36035,8.03223z"/>
</g>
</svg>
