<?xml version="1.0" encoding="utf-8"?>
<!-- Generator: Adobe Illustrator 18.0.0, SVG Export Plug-In . SVG Version: 6.00 Build 0)  -->
<!DOCTYPE svg PUBLIC "-//W3C//DTD SVG 1.1//EN" "http://www.w3.org/Graphics/SVG/1.1/DTD/svg11.dtd">
<svg version="1.1" id="Layer_1" xmlns="http://www.w3.org/2000/svg" xmlns:xlink="http://www.w3.org/1999/xlink" x="0px" y="0px"
	 width="52px" height="52px" viewBox="0 0 52 52" enable-background="new 0 0 52 52" xml:space="preserve">
<g id="_x35_8._Travel_Bag">
	<path d="M44,12.49957h-3h-3h-2v-3c0-1.64996-1.34998-3-3-3H19c-1.65002,0-3,1.35004-3,3v3h-2h-3H8c-1.65002,0-3,1.35004-3,3v24
		c0,1.65002,1.34998,3,3,3h3h3h0.00793c-0.00043,0.42548,0.08142,0.85687,0.27313,1.26794
		c0.3501,0.75079,0.97144,1.28864,1.69287,1.55121c0.7215,0.26263,1.54309,0.25,2.29395-0.10016
		c1.09058-0.50854,1.72314-1.59015,1.72418-2.71899H32.0072c-0.00043,0.42548,0.08142,0.85687,0.27313,1.26794
		c0.35016,0.75079,0.97144,1.28864,1.69287,1.55121c0.7215,0.26263,1.54315,0.25,2.29395-0.10016
		c1.09058-0.50854,1.72314-1.59015,1.72418-2.71899H38h3h3c1.65002,0,3-1.34998,3-3v-24C47,13.84961,45.65002,12.49957,44,12.49957z
		 M19,9.49957h14v3H19V9.49957z M8,39.49957v-24h3v24H8z M14,39.49957v-24h2h3h14h3h2v24H14z M44,39.49957h-3v-24h3V39.49957z"/>
</g>
</svg>
