<?xml version="1.0" encoding="utf-8"?>
<!-- Generator: Adobe Illustrator 18.0.0, SVG Export Plug-In . SVG Version: 6.00 Build 0)  -->
<!DOCTYPE svg PUBLIC "-//W3C//DTD SVG 1.1//EN" "http://www.w3.org/Graphics/SVG/1.1/DTD/svg11.dtd">
<svg version="1.1" id="Layer_1" xmlns="http://www.w3.org/2000/svg" xmlns:xlink="http://www.w3.org/1999/xlink" x="0px" y="0px"
	 width="52px" height="52px" viewBox="0 0 52 52" enable-background="new 0 0 52 52" xml:space="preserve">
<g id="Hotel">
	<path d="M48.5,20c-0.828125,0-1.5,0.671387-1.5,1.5v1.499573h-4.276306C42.891724,22.528198,43,22.02832,43,21.5
		c0-2.481323-2.018677-4.5-4.5-4.5h-21c-0.847473,0-1.632141,0.249451-2.309692,0.658386
		c-0.224548-0.371216-0.481079-0.727783-0.801147-1.048035C13.349609,15.571777,11.96875,15,10.5,15
		s-2.849609,0.571777-3.889648,1.61084C5.538574,17.683105,5.002686,19.091492,5.002747,20.5H5v-8C5,11.671387,4.328613,11,3.5,11
		S2,11.671387,2,12.5v13.499573v9V39.5C2,40.328125,2.671387,41,3.5,41S5,40.328125,5,39.5v-1.500427h42V39.5
		c0,0.828125,0.671875,1.5,1.5,1.5s1.5-0.671875,1.5-1.5v-4.500427v-9V21.5C50,20.671387,49.328125,20,48.5,20z M17.5,20h21
		c0.825012,0,1.5,0.674988,1.5,1.5c0,0.823547-0.672852,1.497253-1.495789,1.499573H17.495789
		C16.672852,22.997253,16,22.323547,16,21.5C16,20.674988,16.674988,20,17.5,20z M8.731934,18.732422
		C9.204102,18.260254,9.83252,18,10.5,18s1.295898,0.260254,1.767578,0.731934
		c0.974609,0.975098,0.974609,2.561035,0.000488,3.535645c-0.944336,0.944336-2.592285,0.943848-3.535645,0.000488
		C7.757812,21.292969,7.757812,19.707031,8.731934,18.732422z M5,34.999573v-9h5.495605C10.49707,25.999573,10.498535,26,10.5,26
		s0.00293-0.000427,0.004395-0.000427h6.991394C17.497253,25.999573,17.498535,26,17.5,26h21
		c0.001465,0,0.002747-0.000427,0.004211-0.000427H47v9H5z"/>
</g>
</svg>
