<?xml version="1.0" encoding="utf-8"?>
<!-- Generator: Adobe Illustrator 18.0.0, SVG Export Plug-In . SVG Version: 6.00 Build 0)  -->
<!DOCTYPE svg PUBLIC "-//W3C//DTD SVG 1.1//EN" "http://www.w3.org/Graphics/SVG/1.1/DTD/svg11.dtd">
<svg version="1.1" id="Layer_1" xmlns="http://www.w3.org/2000/svg" xmlns:xlink="http://www.w3.org/1999/xlink" x="0px" y="0px"
	 width="52px" height="52px" viewBox="0 0 52 52" enable-background="new 0 0 52 52" xml:space="preserve">
<g id="_x32_6._Business">
	<path d="M50.005859,30H50V17c0-1.650024-1.349976-3-3-3H36v-3c0-1.650024-1.349976-3-3-3H19c-1.650024,0-3,1.349976-3,3v3H5
		c-1.650024,0-3,1.349976-3,3v24c0,1.649963,1.349976,3,3,3h42c1.650024,0,3-1.350037,3-3V30.18866
		C50.002625,30.124146,50.005859,30.058228,50.005859,30z M19,11h14v3H19V11z M5,17h11h3h14h3h11v13.032043
		C46.967468,31.463196,44.936157,31.895386,43.318359,32H33h-3h-5.545898v0.000488L22,32.000854V32h-3v0.001343L8.781738,32.00293
		C7.056641,31.894531,5,31.458984,5,30V17z M5,41v-6.791016C5.923706,34.609436,7.121277,34.9021,8.6875,35h10.497742
		C19.600769,36.159668,20.702026,37,22,37h8c1.298462,0,2.399963-0.840942,2.815186-2.001282l10.5979-0.001648
		C44.928345,34.90155,46.09613,34.618713,47,34.229309V41H5z"/>
</g>
</svg>
