{
    "swagger": "2.0",
    "info": {
        "description": "API to support User Management Functions.",
        "version": "1.0",
        "title": "Users API",
        "termsOfService": "https://web.aexp-static.com/EnterpriseAPIPortal/pdf/API_Developer_Agreement.pdf",
        "contact": {
            "name": "API Training Team",
            "email": "nilesh.kumar@aexp.com"
        }
    },
    "basePath": "/training/nkuma143/v1/",
    "tags": [
        {
            "name": "users"
        }
    ],
    "schemes": [
        "https"
    ],
    "paths": {
        "/users/{userid}": {
            "get": {
                "tags": [
                    "users"
                ],
                "summary": "Gets details of a specific user",
                "description": "Queries Details of a user based on the userid supplied",
                "produces": [
                    "application/json"
                ],
                "parameters": [
                    {
                        "name": "userid",
                        "in": "path",
                        "description": "userid associated with the user",
                        "required": true,
                        "type": "string"
                    }
                ],
                "responses": {
                    "200": {
                        "description": "successful operation",
                        "schema": {
                            "$ref": "#/definitions/UserProfile"
                        }
                    },
                    "404": {
                        "description": "Resource Not Found",
                        "schema": {
                            "$ref": "#/definitions/Error"
                        }
                    }
                }
            }
        }
    },
    "definitions": {
        "UserProfile": {
            "type": "object",
            "properties": {
                "First Name": {
                    "type": "string",
                    "description": "First Name of the User."
                },
                "last Name": {
                    "type": "string",
                    "description": "Last Name of the User."
                },
                "Department": {
                    "type": "string",
                    "description": "Company Department where user is employed."
                },
                "Band": {
                    "type": "integer",
                    "description": "User's Employee Band Level."
                },
                "zip": {
                    "type": "integer",
                    "description": "Zip code of user's primary office location."
                }
            }
        },
        "Error": {
            "type": "object",
            "properties": {
                "code": {
                    "type": "integer",
                    "format": "int32"
                },
                "message": {
                    "type": "string"
                },
                "fields": {
                    "type": "string"
                }
            }
        }
    }
}