[{
	"product_ID": "1381",
	"product_name": "-Test-op",
	"product_desc": "ter",
	"product_loc": "India",
	"publicGuid": null,
	"category": "5",
	"prodId": 0,
	"orgName": null,
	"orgId": 0,
	"prodType": null,
	"roleName": null,
	"roleId": 0,
	"autoApproved": null,
	"prodOwnerDl": null,
	"categoryId": null,
	"dateCreated": null,
	"prcGroup": null
}, {
	"product_ID": "270",
	"product_name": "272 Orgint product",
	"product_desc": "272 Orgint product",
	"product_loc": "Phoenix",
	"publicGuid": null,
	"category": "1",
	"prodId": 0,
	"orgName": null,
	"orgId": 0,
	"prodType": null,
	"roleName": null,
	"roleId": 0,
	"autoApproved": null,
	"prodOwnerDl": null,
	"categoryId": null,
	"dateCreated": null,
	"prcGroup": null
}]