<?xml version="1.0" encoding="utf-8"?>
<!-- Generator: Adobe Illustrator 18.0.0, SVG Export Plug-In . SVG Version: 6.00 Build 0)  -->
<!DOCTYPE svg PUBLIC "-//W3C//DTD SVG 1.1//EN" "http://www.w3.org/Graphics/SVG/1.1/DTD/svg11.dtd">
<svg version="1.1" id="Layer_1" xmlns="http://www.w3.org/2000/svg" xmlns:xlink="http://www.w3.org/1999/xlink" x="0px" y="0px"
	 width="18px" height="18px" viewBox="0 0 18 18" enable-background="new 0 0 18 18" xml:space="preserve">
<g id="_x31_8._Down_Triangle">
	<path d="M3.30844,7.26825l5.14282,5C8.6102,12.42273,8.80513,12.5,9,12.5s0.3898-0.07727,0.54874-0.23175l5.14282-5
		c0.27722-0.26953,0.38007-0.71277,0.25718-1.10864C14.8259,5.76373,14.50369,5.5,14.14282,5.5H3.85718
		c-0.36087,0-0.68308,0.26373-0.80592,0.65961C2.92837,6.55548,3.03122,6.99872,3.30844,7.26825z"/>
</g>
</svg>
