<?xml version="1.0" encoding="utf-8"?>
<!-- Generator: Adobe Illustrator 18.0.0, SVG Export Plug-In . SVG Version: 6.00 Build 0)  -->
<!DOCTYPE svg PUBLIC "-//W3C//DTD SVG 1.1//EN" "http://www.w3.org/Graphics/SVG/1.1/DTD/svg11.dtd">
<svg version="1.1" id="Layer_1" xmlns="http://www.w3.org/2000/svg" xmlns:xlink="http://www.w3.org/1999/xlink" x="0px" y="0px"
	 width="52px" height="52px" viewBox="0 0 52 52" enable-background="new 0 0 52 52" xml:space="preserve">
<g id="_x36_1._Change-filled">
	<g>
		<path d="M43.25977,11.23193c-0.00085-0.00085-0.00183-0.00134-0.00269-0.0022l-8.48169-8.48267
			C33.79883,1.77051,32.2168,1.771,31.24023,2.74658c-0.97656,0.97656-0.97656,2.55957,0,3.53564L35.45752,10.5H10.5
			C9.11914,10.5,8,11.61914,8,13s1.11914,2.5,2.5,2.5h24.95752l-4.21729,4.21777c-0.97656,0.97607-0.97656,2.55908,0,3.53564
			c0.48828,0.48779,1.12793,0.73193,1.76758,0.73193s1.2793-0.24414,1.76758-0.73242l8.48169-8.48267
			c0.00085-0.00085,0.00183-0.00134,0.00269-0.0022c0.48828-0.48828,0.73242-1.12823,0.73242-1.76807
			S43.74805,11.72021,43.25977,11.23193z"/>
		<path d="M41.49219,36.5H16.53516l4.21777-4.21777c0.97656-0.97656,0.97656-2.55859,0-3.53516s-2.55859-0.97656-3.53516,0
			l-8.48535,8.48535c-0.97656,0.97656-0.97656,2.55859,0,3.53516l8.48535,8.48535c0.48828,0.48828,1.12793,0.73242,1.76758,0.73242
			s1.2793-0.24414,1.76758-0.73242c0.97656-0.97656,0.97656-2.55859,0-3.53516L16.53516,41.5h24.95703
			c1.38086,0,2.5-1.11914,2.5-2.5S42.87305,36.5,41.49219,36.5z"/>
	</g>
</g>
</svg>
