<?xml version="1.0" encoding="utf-8"?>
<!-- Generator: Adobe Illustrator 18.0.0, SVG Export Plug-In . SVG Version: 6.00 Build 0)  -->
<!DOCTYPE svg PUBLIC "-//W3C//DTD SVG 1.1//EN" "http://www.w3.org/Graphics/SVG/1.1/DTD/svg11.dtd">
<svg version="1.1" id="Layer_1" xmlns="http://www.w3.org/2000/svg" xmlns:xlink="http://www.w3.org/1999/xlink" x="0px" y="0px"
	 width="52px" height="52px" viewBox="0 0 52 52" enable-background="new 0 0 52 52" xml:space="preserve">
<g id="_x34_8._Other-filled">
	<g>
		<path d="M25.99988,1.99994C12.74512,1.99994,2,12.74506,2,26c0,13.25476,10.74512,24.00006,23.99988,24.00006
			C39.25482,50.00006,50,39.25476,50,26C50,12.74506,39.25482,1.99994,25.99988,1.99994z M19.12134,28.12128
			C18.53552,28.70709,17.76776,29,17,29s-1.53552-0.29291-2.12134-0.87872c-1.17157-1.17157-1.17157-3.07104,0-4.24261
			C15.46448,23.29291,16.23224,23,17,23s1.53552,0.29291,2.12134,0.87866C20.29291,25.05023,20.29291,26.94971,19.12134,28.12128z
			 M28.12134,28.12128C27.53552,28.70709,26.76776,29,26,29s-1.53552-0.29291-2.12134-0.87872
			c-1.17157-1.17157-1.17157-3.07104,0-4.24261C24.46448,23.29291,25.23224,23,26,23s1.53552,0.29291,2.12134,0.87866
			C29.29291,25.05023,29.29291,26.94971,28.12134,28.12128z M37.12134,28.12128C36.53552,28.70709,35.76776,29,35,29
			s-1.53552-0.29291-2.12134-0.87872c-1.17157-1.17157-1.17157-3.07104,0-4.24261C33.46448,23.29291,34.23224,23,35,23
			s1.53552,0.29291,2.12134,0.87866C38.29291,25.05023,38.29291,26.94971,37.12134,28.12128z"/>
	</g>
</g>
</svg>
