[
    {
			"name": "OPS Admin Team", "id":"104"
    },
	{
			"name": "The Hartford Insurance1", "id":"108"
    },
    {
			"name": "E1 ADMINS", "id":"106"
    },
    {
			"name": "UHC", "id":"139"
    },
    {
			"name": "R3 Change", "id":"114"
    }
]