{"AccountsReceivableInternational_v1_UnitTest":"oAuth",
"Compliance_Test1Mar2_200004246_v1_UnitTest":"oAuth",
"Authorizations_Test567_122966320_v2_UnitTest":"oAuth",
"FraudRiskManagement_EnhancedAuthorizations_A2A":"notoAuth",
"APIManagement_PhickertTest_0717_1410_A2A":"notoAuth",
"APIManagement_sonam_A2A":"oAuth",
"Authorizations_Dsf_200004246_v1_UnitTest":"oAuth",
"APIManagement_ajita_A2A":"notoAuth",
"ICON_ClientOnboarding":"notoAuth"}
