{
	"swagger": "2.0",
	"info": {
		"title": "Find Amex Locations API suite",
		"description": "<p><strong>MERCHANT LOCATIONS -- Description to be updated</strong> The Find Amex Locations APIs provide geolocation information for a variety of services which support American Express products and Merchants that accept American Express.</p><p>The current suite enables you to:</p><p><ul><li>Find American Express accepting ATMs using both address and geolocation search capabilities, returning a list of ATMs that accept American Express® Cards within a given radius that match the provided criteria.</li><li><strong>TODO---DESCRIPTION--</strong>Locate merchants which accept American Express® Cards</li></ul></p><p><strong>need to update</strong>Additional capabilities are on the way. Soon you will also be able to:<ul><li>Discover travel service offices which accept American Express</li><li>Find the closest bank or financial location that can exchange Traveler's Checks</li></ul></p>",
		"version": "2.0.0",
		"x-modified": "July 6, 2016"
	},
	"x-basePaths": [
		{ "basePath": " /merchants/v1/locations"}
	],
	"x-security": {
		"oneWayTLS_AppKey": true,
		"oneWayTLS_HMAC": false,
		"oAuth": false
	},
	"x-samples": [
		{
			"name": "Merchant Locations Sample Application",
			"href": "https://stash.aexp.com/stash/projects/AIM200005145/repos/atm-locator-api-samples/browse"
		},
		{
			"name": "Merchant Locations Sample Application",
			"href": "https://github.com/americanexpress/location-locator-atms/java"
		},
		{
			"name": "Security SDKs",
			"href": "https://github.com/americanexpress/location-locator-atms/nodejs"
		}
	],
	"schemes": [
		"https"
	],
	"consumes": [
		"application/json"
	],
	"paths": {
		"/merchants/v1/locations/recommendations": {
			"head": {
				"summary": "Merchant Locations - Result count check",
				"description": "<p>Used to validate the result count of a specified query without incurring the overhead of the payload.</p><p>Please see the <code>GET /merchants/v1/locations/recommendations</code> specification for details of the call.</p><p><em>Note: The <code>HEAD</code> method is only available for the search capabilities provided in the <code>GET</code> API.</em></p>",
				"parameters": [],
				"responses": {
					"200" : {
						"description": "<p>Provides the result count for the specified query.</p>",
						"headers": {
							"x-total-count": {
								"description": "Total number of Merchants that will be returned.",
								"type": "number"
							}
						}
					}
				},
				"x-tryit": [
					{
						"name": "Geocode - California",
						"requestHeaders": "HEAD https://api.aexp.com/servicing/v1/banks/atms?radius_unit=MI&radius=5&latitude=37.61&longitude=-122.37&limit=20&offset=1 HTTP/1.1<br />x-amex-api-key : A1W4LlXwgzH54HJFhihiPIKm4xdJARjk<br />Accept: application/json",
						"requestBody": "",
						"responseHeaders": "HTTP/1.1 200 OK<br />Content-Type: application/json<br />x-total-count: 655",
						"responseBody": "",
						"responseCode": "200",
						"responseMessage": "OK"
					},
					{
						"name": "Filter - Braille enabled",
						"requestHeaders": "HEAD https://api.aexp.com/servicing/v1/banks/atms?radius_unit=MI&radius=5&latitude=33.66&longitude=-112.10&braille_enabled=Y&limit=20 HTTP/1.1<br />x-amex-api-key : A1W4LlXwgzH54HJFhihiPIKm4xdJARjk<br />Accept: application/json",
						"requestBody": "",
						"responseHeaders": "HTTP/1.1 200 OK<br />Content-Type: application/json<br />x-total-count: 19",
						"responseBody": "",
						"responseCode": "200",
						"responseMessage": "OK"
					}
				]
			},
			"get": {
				"summary": "Merchant Locations - Non-personalized",
				"description": "<p>US ONLY, non-CC version, Non-personalized</p><p>description</p>",
				"produces": [
					"application/json"
				],
				"parameters": [
					{
						"in": "header",
						"name": "x-amex-api-key",
						"description": "<p>Your application's Client Key for accessing this API.</p><p><em><a href='#/essentials#apisecurity'>Learn more about API Key security</a></em></p><p>e.g. <code>cOthV4ao4Xxho1BzrIXcOf8CTJXUONdj</code></p>",
						"required": true,
						"type": "string",
						"maxLength": 36
					},
					{
						"in": "header",
						"name": "x-amex-request-id",
						"description": "<p>Unique ID <strong>generated by the caller.</p><p>e.g. <code>AA3434342323</code></p>",
						"required": true,
						"type": "string"
					},
					{
						"name": "algorithm",
						"in": "query",
						"description": "<p>description</p><p>e.g. <code>aoeu</code></p>",
						"required": false,
						"type": "string",
						"maxLength": 40
					},
					{
						"name": "address",
						"in": "query",
						"description": "<p><strong>One of the following field groups are required: Search on Center, Address, or Bounding Box.</strong></p><p>If performing an Address Search,</strong> Country specific address representing the point of origin around which you would like to search. Details should include: street, city, and provincial details as appropriate.</p><p>e.g. <code>200 Vesey St, New York, NY 10285</code></p>",
						"required": false,
						"type": "string"
					},
					{
						"name": "center_latitude",
						"in": "query",
						"description": "<p><strong>One of the following field groups are required: Search on Center, Address, or Bounding Box.</strong></p><p><strong>If performing a Search on Center search,</strong> Latitude of the point of origin around which you would like to search.</p><p>e.g. <code>-1.5459487</code></p>",
						"required": false,
						"type": "number"
					},
					{
						"name": "center_longitude",
						"in": "query",
						"description": "<p><strong>One of the following field groups are required: Search on Center, Address, or Bounding Box.</strong></p><p>If performing a Search on Center search,</strong> Longitude of the point of origin around which you would like to search.</p><p>e.g. <code>52.2768309</code></p>",
						"required": false,
						"type": "number"
					},
					{
						"name": "radius",
						"in": "query",
						"description": "<p><strong>Required for Address or Search on Center functions.</strong>Search radius around the point of origin. </p><p><em>Default value: 50</em></p><p>e.g. <code>5</code></p>",
						"required": false,
						"type": "number"
					},
					{
						"name": "radius_unit",
						"in": "query",
						"description": "<p><strong>Required for Address or Search on Center.</strong>Unit of search radius. Accepted Values:<ui><li><strong>MI</strong> = Miles</li><li><strong>KM</strong> = Kilometers</li></ul></p><p><em>Default value: MI</em></p><p>e.g. <code>MI</code></p>",
						"required": false,
						"type": "string",
						"maxLength": 2
					},
					{
						"name": "boundingbox_topleft_latitude",
						"in": "query",
						"description": "<p><strong>One of the following field groups are required: Search on Center, Address, or Bounding Box.</strong></p><p>Latitude of the Top Left corner of the search region.</p><p>Together: <code>boundingbox_topleft_latitude</code>, <code>boundingbox_topleft_longitude</code>, <code>boundingbox_bottomright_latitude</code>, and <code>boundingbox_bottomright_longitude</code> describe a rectangular search area to search within.</p><p>e.g. <code>-1.5459487</code></p>",
						"required": false,
						"type": "number"
					},
					{
						"name": "boundingbox_topleft_longitude",
						"in": "query",
						"description": "<p><strong>One of the following field groups are required: Search on Center, Address, or Bounding Box.</strong></p><p>Longitude of the Top Left corner of the search region.</p><p>Together: <code>boundingbox_topleft_latitude</code>, <code>boundingbox_topleft_longitude</code>, <code>boundingbox_bottomright_latitude</code>, and <code>boundingbox_bottomright_longitude</code> describe a rectangular search area to search within.</p><p>e.g. <code>52.2768309</code></p>",
						"required": false,
						"type": "number"
					},
					{
						"name": "boundingbox_bottomright_latitude",
						"in": "query",
						"description": "<p><strong>One of the following field groups are required: Search on Center, Address, or Bounding Box.</strong></p><p>Latitude of the Bottom Right corner of the search region.</p><p>Together: <code>boundingbox_topleft_latitude</code>, <code>boundingbox_topleft_longitude</code>, <code>boundingbox_bottomright_latitude</code>, and <code>boundingbox_bottomright_longitude</code> describe a rectangular search area to search within.</p><p>e.g. <code>-1.5459487</code></p>",
						"required": false,
						"type": "number"
					},
					{
						"name": "boundingbox_bottomright_longitude",
						"in": "query",
						"description": "<p><strong>One of the following field groups are required: Search on Center, Address, or Bounding Box.</strong></p><p>Longitude of the Bottom Right corner of the search region.</p><p>Together: <code>boundingbox_topleft_latitude</code>, <code>boundingbox_topleft_longitude</code>, <code>boundingbox_bottomright_latitude</code>, and <code>boundingbox_bottomright_longitude</code> describe a rectangular search area to search within.</p><p>e.g. <code>52.2768309</code></p>",
						"required": false,
						"type": "number"
					},
					{
						"name": "limit",
						"in": "query",
						"description": "<p><strong>Supporting paging:</strong></p><p>Limits the number of objects returned, up to the specified value.</p><p><em>Default: 100, <strong>Max:</strong> 100</em></p><p>e.g. <code>20</code></p>",
						"required": false,
						"type": "number"
					},
					{
						"name": "offset",
						"in": "query",
						"description": "<p><strong>Supporting paging:</strong></p><p>The zero based starting position of the first object returned from within the total result set, automatically adjusted to the start of a page based on the value of <code>limit</code>.</p><p>e.g. <code>40</code> could be used to retreive page 3 if using a <code>limit</code> of <code>20</code>.</p>",
						"required": false,
						"type": "number"
					},
					{
						"name": "category_level_1_code",
						"in": "query",
						"description": "<p>First level category's code for the Merchant. Examples include: Dining (1), Entertainment (2), and Travel (5).</p><p>The full list of categories and their codes can be retrieved from the <code>/merchants/v1/categories</code> API.</p><p>e.g. <code>1</code></p>",
						"required": false,
						"type": "number"
					},
					{
						"name": "category_level_2_code",
						"in": "query",
						"description": "<p>Second level category's code for the Merchant. Examples include: Cuisine (1), Restaurant (2), and Sports and Recreation (4).</p><p>The full list of categories and their codes can be retrieved from the <code>/merchants/v1/categories</code> API.</p><p>e.g. <code>1</code></p>",
						"required": false,
						"type": "number"
					},
					{
						"name": "category_level_3_code",
						"in": "query",
						"description": "<p>Third level category's code for the Merchant. Examples include: Barbeque (166), Coffee (195), and Golf (1303).</p><p>The full list of categories and their codes can be retrieved from the <code>/merchants/v1/categories</code> API.</p><p>e.g. <code>1303</code></p>",
						"required": false,
						"type": "number"
					},
					{
						"name": "merchant_name",
						"in": "query",
						"description": "<p>Exact Merchant Name required. A Merchant name can be retrieved by calling the <code>/type_ahead_search</code> API and using any matches as values for the <code>merchant_name</code>.</p><p>e.g. <code>aoeu</code></p>",
						"required": false,
						"type": "string",
						"maxLength": 40
					}
				],
				"responses": {
					"200" : {
						"description": "<p>Request processed succesfully.</p><p>Upon a <span class='label label-success'>200</span>, an array of ATMs that match the specified criteria will be returned.",
						"headers": {
							"x-total-count": {
								"description": "Total number of Merchants found within the specified search criteria.",
								"type": "number"
							},
							"x-amex-request-id": {
								"description": "The Unique ID sent with the Request.",
								"type": "number"
							}
						},
						"schema": {
							"type": "object",
							"properties": {
								"Merchants": {
									"type": "array",
									"items": {
										"type": "object"
									},
									"properties": {
										"identity": {
											"type": "object",
											"properties": {
												"merchant_id": {
													"type": "string",
													"description": "<p>Unique identifier for the merchant.</p><p>e.g. <code>aoeu</code></p>"
												},
												"name": {
													"type": "string",
													"description": "<p>Merchant name.</p><p>e.g. <code>aoeu</code></p>"
												},
												"website": {
													"type": "string",
													"description": "<p>URL for the Merchant if available.</p><p>e.g. <code>aoeu</code></p>"
												},
												"email": {
													"type": "string",
													"description": "<p>Contact email address for the Merchant.</p><p>e.g. <code>aoeu</code></p>"
												},
												"phone": {
													"type": "string",
													"description": "<p>Contact phone number for the Merchant.</p><p>e.g. <code>aoeu</code></p>"
												}
											}
										},
										"geolocation": {
											"type": "object",
											"properties": {
												"distance": {
													"description": "<p>Distance from origin or center of bounding box to the Merchant.</p><p>e.g. <code>0.9062</code></p>",
													"type": "number"
												},
												"distance_unit": {
													"description": "<p>Unit in which the <code>geolocation.distance</code> is provided such as, 'Miles'.</p><p>e.g. <code>miles</code></p>",
													"type": "string"
												}
											}
										},
										"address": {
											"type": "object",
											"properties": {
												"street": {
													"description": "<p>e.g. <code>Baker Street</code></p>",
													"type": "string"
												},
												"street_line_2": {
													"description": "<p>e.g. <code>SUITE: 221B</code></p>",
													"type": "string"
												},
												"city": {
													"description": "<p>e.g. <code>LEAMINGTON SPA</code></p>",
													"type": "string"
												},
												"state": {
													"description": "<p>e.g. <code>UNITED KINGDOM</code></p>",
													"type": "string"
												},
												"postal_code": {
													"description": "<p>e.g. <code>CV31 3DD</code></p>",
													"type": "string"
												},
												"country_code": {
													"description": "<p>e.g. <code>GB</code></p>",
													"type": "string"
												},
												"country_name": {
													"description": "<p>e.g. <code>UNITED KINGDOM</code></p>",
													"type": "string"
												}
											}
										},
										"category": {
											"type": "object",
											"properties": {
												"level_1": {
													"type": "string",
													"description": "<p>First level category name.</p><p>e.g. <code>aoeu</code></p>"
												},
												"level_1_code": {
													"type": "string",
													"description": "<p>First level category code.</p><p>e.g. <code>aoeu</code></p>"
												},
												"level_2": {
													"type": "string",
													"description": "<p>Second level category name.</p><p>e.g. <code>aoeu</code></p>"
												},
												"level_2_code": {
													"type": "string",
													"description": "<p>Second level category code.</p><p>e.g. <code>aoeu</code></p>"
												},
												"level_3": {
													"type": "string",
													"description": "<p>Third level category name.</p><p>e.g. <code>aoeu</code></p>"
												},
												"level_3_code": {
													"type": "string",
													"description": "<p>Third level category code.</p><p>e.g. <code>aoeu</code></p>"
												}
											}
										},
										"attributes": {
											"type": "object",
											"properties": {
												"d1": {
													"type": "string",
													"description": "<p>description</p><p>e.g. <code>aoeu</code></p>"
												},
												"d2": {
													"type": "string",
													"description": "<p>description</p><p>e.g. <code>aoeu</code></p>"
												},
												"dx": {
													"type": "string",
													"description": "<p>description</p><p>e.g. <code>aoeu</code></p>"
												},
												"rank": {
													"type": "string",
													"description": "<p>Matching rank based on the search algorithm used.</p><p>e.g. <code>aoeu</code></p>"
												},
												"member_favourite": {
													"type": "string",
													"description": "<p>description</p><p>e.g. <code>aoeu</code></p>"
												},
												"known_for_text": {
													"type": "string",
													"description": "<p>description</p><p>e.g. <code>aoeu</code></p>"
												}
											}
										}
									}
								},
								"_link": {
									"type": "array",
									"items": {
										"type": "object"
									},
									"properties": {
										"rel": {
											"type": "string",
											"maxLength": 10,
											"description": "<p>Link relationship to the previous request. Possible values include:<ul><li>next</li><li>previous</li></ul></p><p>e.g. <code>next</code></p>"
										},
										"href": {
											"type": "string",
											"maxLength": 2000,
											"description": "<p>URI for the link</p><p>e.g. <code>/locations/atms?offset=40&limit=20</p>"
										},
										"method": {
											"type": "string",
											"maxLength": 6,
											"description": "<p>HTTP Method.</p><p>e.g. <code>GET</code></p>"
										}
									}
								}
							}
						}
					},
					"500": {
						"description": "Internal Error. An error has occured within the American Express systems.",
						"headers": {
							"x-amex-request-id": {
								"description": "The Unique ID sent with the Request.",
								"type": "number"
							}
						},
						"schema": {
							"type": "object",
							"properties": {
								"error_code": {
									"type": "string",
									"maxLength": 6,
									"description": "<p>Detailed Error Code.</p><p>Please see <a href='#/essentials#errorcodes'>Standard Error Codes</a> for additional details.</p><p>e.g. <code>104010</code></p>"
									},
								"error_type": {
									"type": "string",
									"description": "<p>Brief error description.</p><p>e.g. <code>InvalidApiKey</code></p>"
									},
								"error_description": {
									"type": "string",
									"description": "<p>Human-friendly detailed error description.</p><p>e.g. <code>Invalid API Key identified on the gateway</code></p>"
									},
								"more_info": {
									"type": "string",
									"description": "<p>Additional information related to the error. This could include low-level error codes and information.</p><p>e.g. <code>INQ2002 Card is not eligible for the Program</code></p>"
								}
							}
						}
					}
				},
				"x-tryit": [
					{
						"name": "placeholder",
						"requestHeaders": "GET /api",
						"requestBody": "",
						"responseHeaders": "HTTP/1.1 200 Sucess<br />Content-Type: application/json;",
						"responseBody": {"json": "info"},
						"responseCode": "200",
						"responseMessage": "Success"
					}
				]
			},
			"post": {
				"summary": "summary",
				"description": "<p>US ONLY, CC version with recommendations</p>",
				"produces": [
					"application/json"
				],
				"parameters": [
					{
						"in": "header",
						"name": "x-amex-api-key",
						"description": "<p>Your application's Client Key for accessing this API.</p><p><em><a href='#/essentials#apisecurity'>Learn more about API Key security</a></em></p><p>e.g. <code>cOthV4ao4Xxho1BzrIXcOf8CTJXUONdj</code></p>",
						"required": true,
						"type": "string",
						"maxLength": 36
					},
					{
						"in": "header",
						"name": "x-amex-request-id",
						"description": "<p>Unique ID <strong>generated by the caller.</p><p>e.g. <code>AA3434342323</code></p>",
						"required": true,
						"type": "string"
					},
					{
						"in": "body",
						"name": "request",
						"schema": {
							"type": "object",
							"properties": {
								"algorithm": {
									"type": "string",
									"maxLength": 40,
									"description": "<p>description</p><p>e.g. <code>aoeu</code></p>",
									"x-required": true
								},
								"address": {
									"type": "string",
									"maxLength": 40,
									"description": "<p><strong>One of the following field groups are required: Search on Center, Address, or Bounding Box.</strong></p><p>If performing an Address Search,</strong> Country specific address representing the point of origin around which you would like to search. Details should include: street, city, and provincial details as appropriate.</p><p>e.g. <code>200 Vesey St, New York, NY 10285</code></p>",
									"x-required": false
								},
								"center_latitude": {
									"type": "number",
									"description": "<p><strong>One of the following field groups are required: Search on Center, Address, or Bounding Box.</strong></p><p><strong>If performing a Search on Center search,</strong> Latitude of the point of origin around which you would like to search.</p><p>e.g. <code>-1.5459487</code></p>",
									"x-required": false
								},
								"center_longitude": {
									"type": "number",
									"description": "<p><strong>One of the following field groups are required: Search on Center, Address, or Bounding Box.</strong></p><p>If performing a Search on Center search,</strong> Longitude of the point of origin around which you would like to search.</p><p>e.g. <code>52.2768309</code></p>",
									"x-required": false
								},
								"radius": {
									"type": "number",
									"description": "<p><strong>Required for Address or Search on Center functions.</strong>Search radius around the point of origin. </p><p><em>Default value: 50</em></p><p>e.g. <code>5</code></p>",
									"x-required": false
								},
								"radius_unit": {
									"type": "string",
									"maxLength": 2,
									"description": "<p><strong>Required for Address or Search on Center.</strong>Unit of search radius. Accepted Values:<ui><li><strong>MI</strong> = Miles</li><li><strong>KM</strong> = Kilometers</li></ul></p><p><em>Default value: MI</em></p><p>e.g. <code>MI</code></p>",
									"x-required": false
								},
								"boundingbox_topleft_latitude": {
									"type": "number",
									"description": "<p><strong>One of the following field groups are required: Search on Center, Address, or Bounding Box.</strong></p><p>Latitude of the Top Left corner of the search region.</p><p>Together: <code>boundingbox_topleft_latitude</code>, <code>boundingbox_topleft_longitude</code>, <code>boundingbox_bottomright_latitude</code>, and <code>boundingbox_bottomright_longitude</code> describe a rectangular search area to search within.</p><p>e.g. <code>-1.5459487</code></p>",
									"x-required": false
								},
								"boundingbox_topleft_longitude": {
									"type": "number",
									"description": "<p><strong>One of the following field groups are required: Search on Center, Address, or Bounding Box.</strong></p><p>Longitude of the Top Left corner of the search region.</p><p>Together: <code>boundingbox_topleft_latitude</code>, <code>boundingbox_topleft_longitude</code>, <code>boundingbox_bottomright_latitude</code>, and <code>boundingbox_bottomright_longitude</code> describe a rectangular search area to search within.</p><p>e.g. <code>52.2768309</code></p>",
									"x-required": false
								},
								"boundingbox_bottomright_latitude": {
									"type": "number",
									"description": "<p><strong>One of the following field groups are required: Search on Center, Address, or Bounding Box.</strong></p><p>Latitude of the Bottom Right corner of the search region.</p><p>Together: <code>boundingbox_topleft_latitude</code>, <code>boundingbox_topleft_longitude</code>, <code>boundingbox_bottomright_latitude</code>, and <code>boundingbox_bottomright_longitude</code> describe a rectangular search area to search within.</p><p>e.g. <code>-1.5459487</code></p>",
									"x-required": false
								},
								"boundingbox_bottomright_longitude": {
									"type": "number",
									"description": "<p><strong>One of the following field groups are required: Search on Center, Address, or Bounding Box.</strong></p><p>Longitude of the Bottom Right corner of the search region.</p><p>Together: <code>boundingbox_topleft_latitude</code>, <code>boundingbox_topleft_longitude</code>, <code>boundingbox_bottomright_latitude</code>, and <code>boundingbox_bottomright_longitude</code> describe a rectangular search area to search within.</p><p>e.g. <code>52.2768309</code></p>",
									"x-required": false
								},
								"limit": {
									"type": "number",
									"description": "<p><strong>Supporting paging:</strong></p><p>Limits the number of objects returned, up to the specified value.</p><p><em>Default: 100, <strong>Max:</strong> 100</em></p><p>e.g. <code>20</code></p>",
									"x-required": false
								},
								"offset": {
									"type": "number",
									"description": "<p><strong>Supporting paging:</strong></p><p>The zero based starting position of the first object returned from within the total result set, automatically adjusted to the start of a page based on the value of <code>limit</code>.</p><p>e.g. <code>40</code> could be used to retreive page 3 if using a <code>limit</code> of <code>20</code>.</p>",
									"x-required": false
								},
								"category_level_1_code": {
									"type": "number",
									"description": "<p>First level category's code for the Merchant. Examples include: Dining (1), Entertainment (2), and Travel (5).</p><p>The full list of categories and their codes can be retrieved from the <code>/merchants/v1/categories</code> API.</p><p>e.g. <code>1</code></p>",
									"x-required": false
								},
								"category_level_2_code": {
									"type": "number",
									"description": "<p>Second level category's code for the Merchant. Examples include: Cuisine (1), Restaurant (2), and Sports and Recreation (4).</p><p>The full list of categories and their codes can be retrieved from the <code>/merchants/v1/categories</code> API.</p><p>e.g. <code>1</code></p>",
									"x-required": false
								},
								"category_level_3_code": {
									"type": "number",
									"description": "<p>Third level category's code for the Merchant. Examples include: Barbeque (166), Coffee (195), and Golf (1303).</p><p>The full list of categories and their codes can be retrieved from the <code>/merchants/v1/categories</code> API.</p><p>e.g. <code>1303</code></p>",
									"x-required": false
								},
								"merchant_name": {
									"type": "string",
									"maxLength": 40,
									"description": "<p>Exact Merchant Name required. A Merchant name can be retrieved by calling the <code>/type_ahead_search</code> API and using any matches as values for the <code>merchant_name</code>.</p><p>e.g. <code>aoeu</code></p>",
									"x-required": false
								},
								"card_number": {
									"type": "string",
									"maxLength": 15,
									"description": "<p>Card number of the Card Member who is performing the search.</p><p>e.g. <code>aoeu</code></p>",
									"x-required": false
								}
							}
						}
					}
				],
				"responses": {
					"200" : {
						"description": "<p>Request processed succesfully.</p><p>Upon a <span class='label label-success'>200</span>, an array of ATMs that match the specified criteria will be returned.",
						"headers": {
							"x-total-count": {
								"description": "Total number of Merchants found within the specified search criteria.",
								"type": "number"
							},
							"x-amex-request-id": {
								"description": "The Unique ID sent with the Request.",
								"type": "number"
							}
						},
						"schema": {
							"type": "object",
							"properties": {
								"Merchants": {
									"type": "array",
									"items": {
										"type": "object"
									},
									"properties": {
										"identity": {
											"type": "object",
											"properties": {
												"merchant_id": {
													"type": "string",
													"description": "<p>Unique identifier for the merchant.</p><p>e.g. <code>aoeu</code></p>"
												},
												"name": {
													"type": "string",
													"description": "<p>Merchant name.</p><p>e.g. <code>aoeu</code></p>"
												},
												"website": {
													"type": "string",
													"description": "<p>URL for the Merchant if available.</p><p>e.g. <code>aoeu</code></p>"
												},
												"email": {
													"type": "string",
													"description": "<p>Contact email address for the Merchant.</p><p>e.g. <code>aoeu</code></p>"
												},
												"phone": {
													"type": "string",
													"description": "<p>Contact phone number for the Merchant.</p><p>e.g. <code>aoeu</code></p>"
												}
											}
										},
										"geolocation": {
											"type": "object",
											"properties": {
												"distance": {
													"description": "<p>Distance from origin or center of bounding box to the Merchant.</p><p>e.g. <code>0.9062</code></p>",
													"type": "number"
												},
												"distance_unit": {
													"description": "<p>Unit in which the <code>geolocation.distance</code> is provided such as, 'Miles'.</p><p>e.g. <code>miles</code></p>",
													"type": "string"
												}
											}
										},
										"address": {
											"type": "object",
											"properties": {
												"street": {
													"description": "<p>e.g. <code>Baker Street</code></p>",
													"type": "string"
												},
												"street_line_2": {
													"description": "<p>e.g. <code>SUITE: 221B</code></p>",
													"type": "string"
												},
												"city": {
													"description": "<p>e.g. <code>LEAMINGTON SPA</code></p>",
													"type": "string"
												},
												"state": {
													"description": "<p>e.g. <code>UNITED KINGDOM</code></p>",
													"type": "string"
												},
												"postal_code": {
													"description": "<p>e.g. <code>CV31 3DD</code></p>",
													"type": "string"
												},
												"country_code": {
													"description": "<p>e.g. <code>GB</code></p>",
													"type": "string"
												},
												"country_name": {
													"description": "<p>e.g. <code>UNITED KINGDOM</code></p>",
													"type": "string"
												}
											}
										},
										"category": {
											"type": "object",
											"properties": {
												"level_1": {
													"type": "string",
													"description": "<p>First level category name.</p><p>e.g. <code>aoeu</code></p>"
												},
												"level_1_code": {
													"type": "string",
													"description": "<p>First level category code.</p><p>e.g. <code>aoeu</code></p>"
												},
												"level_2": {
													"type": "string",
													"description": "<p>Second level category name.</p><p>e.g. <code>aoeu</code></p>"
												},
												"level_2_code": {
													"type": "string",
													"description": "<p>Second level category code.</p><p>e.g. <code>aoeu</code></p>"
												},
												"level_3": {
													"type": "string",
													"description": "<p>Third level category name.</p><p>e.g. <code>aoeu</code></p>"
												},
												"level_3_code": {
													"type": "string",
													"description": "<p>Third level category code.</p><p>e.g. <code>aoeu</code></p>"
												}
											}
										},
										"attributes": {
											"type": "object",
											"properties": {
												"d1": {
													"type": "string",
													"description": "<p>description</p><p>e.g. <code>aoeu</code></p>"
												},
												"d2": {
													"type": "string",
													"description": "<p>description</p><p>e.g. <code>aoeu</code></p>"
												},
												"dx": {
													"type": "string",
													"description": "<p>description</p><p>e.g. <code>aoeu</code></p>"
												},
												"rank": {
													"type": "string",
													"description": "<p>Matching rank based on the search algorithm used.</p><p>e.g. <code>aoeu</code></p>"
												},
												"member_favourite": {
													"type": "string",
													"description": "<p>description</p><p>e.g. <code>aoeu</code></p>"
												},
												"known_for_text": {
													"type": "string",
													"description": "<p>description</p><p>e.g. <code>aoeu</code></p>"
												}
											}
										}
									}
								},
								"_link": {
									"type": "array",
									"items": {
										"type": "object"
									},
									"properties": {
										"rel": {
											"type": "string",
											"maxLength": 10,
											"description": "<p>Link relationship to the previous request. Possible values include:<ul><li>next</li><li>previous</li></ul></p><p>e.g. <code>next</code></p>"
										},
										"href": {
											"type": "string",
											"maxLength": 2000,
											"description": "<p>URI for the link</p><p>e.g. <code>/locations/atms?offset=40&limit=20</p>"
										},
										"method": {
											"type": "string",
											"maxLength": 6,
											"description": "<p>HTTP Method.</p><p>e.g. <code>GET</code></p>"
										}
									}
								}
							}
						}
					},
					"500": {
						"description": "Internal Error. An error has occured within the American Express systems.",
						"headers": {
							"x-amex-request-id": {
								"description": "The Unique ID sent with the Request.",
								"type": "number"
							}
						},
						"schema": {
							"type": "object",
							"properties": {
								"error_code": {
									"type": "string",
									"maxLength": 6,
									"description": "<p>Detailed Error Code.</p><p>Please see <a href='#/essentials#errorcodes'>Standard Error Codes</a> for additional details.</p><p>e.g. <code>104010</code></p>"
									},
								"error_type": {
									"type": "string",
									"description": "<p>Brief error description.</p><p>e.g. <code>InvalidApiKey</code></p>"
									},
								"error_description": {
									"type": "string",
									"description": "<p>Human-friendly detailed error description.</p><p>e.g. <code>Invalid API Key identified on the gateway</code></p>"
									},
								"more_info": {
									"type": "string",
									"description": "<p>Additional information related to the error. This could include low-level error codes and information.</p><p>e.g. <code>INQ2002 Card is not eligible for the Program</code></p>"
								}
							}
						}
					}
				},
				"x-tryit": [
					{
						"name": "placeholder",
						"requestHeaders": "GET /api",
						"requestBody": "",
						"responseHeaders": "HTTP/1.1 200 Sucess<br />Content-Type: application/json;",
						"responseBody": {"json": "info"},
						"responseCode": "200",
						"responseMessage": "Success"
					}
				]
			}
		},
		"/merchants/v1/locations/recommendations/type_ahead_search": {
			"get": {
				"summary": "summary",
				"description": "<p>description</p>",
				"produces": [
					"application/json"
				],
				"parameters": [
					{
						"in": "header",
						"name": "x-amex-api-key",
						"description": "<p>Your application's Client Key for accessing this API.</p><p><em><a href='#/essentials#apisecurity'>Learn more about API Key security</a></em></p><p>e.g. <code>cOthV4ao4Xxho1BzrIXcOf8CTJXUONdj</code></p>",
						"required": true,
						"type": "string",
						"maxLength": 36
					},
					{
						"in": "header",
						"name": "x-amex-request-id",
						"description": "<p>Unique ID <strong>generated by the caller.</p><p>e.g. <code>AA3434342323</code></p>",
						"required": true,
						"type": "string"
					},
					{
						"name": "algorithm",
						"in": "query",
						"description": "<p>description</p><p>e.g. <code>aoeu</code></p>",
						"required": false,
						"type": "string",
						"maxLength": 40
					},
					{
						"name": "center_latitude",
						"in": "query",
						"description": "<p><strong>Either of the following field groups are required: Search on Center or Address.</strong></p><p><strong>If performing a Search on Center search,</strong> Latitude of the point of origin around which you would like to search.</p><p>e.g. <code>-1.5459487</code></p>",
						"required": false,
						"type": "number"
					},
					{
						"name": "center_longitude",
						"in": "query",
						"description": "<p><strong>Either of the following field groups are required: Search on Center or Address.</strong></p><p>If performing a Search on Center search,</strong> Longitude of the point of origin around which you would like to search.</p><p>e.g. <code>52.2768309</code></p>",
						"required": false,
						"type": "number"
					},
					{
						"name": "radius",
						"in": "query",
						"description": "<p><strong>Required for Address or Search on Center functions.</strong>Search radius around the point of origin. </p><p><em>Default value: 50</em></p><p>e.g. <code>5</code></p>",
						"required": false,
						"type": "number"
					},
					{
						"name": "radius_unit",
						"in": "query",
						"description": "<p><strong>Required for Address or Search on Center.</strong>Unit of search radius. Accepted Values:<ui><li><strong>MI</strong> = Miles</li><li><strong>KM</strong> = Kilometers</li></ul></p><p><em>Default value: MI</em></p><p>e.g. <code>MI</code></p>",
						"required": false,
						"type": "string",
						"maxLength": 2
					},
					{
						"name": "address",
						"in": "query",
						"description": "<p><strong>Either of the following field groups are required: Search on Center or Address.</strong></p><p>If performing an Address Search,</strong> Country specific address representing the point of origin around which you would like to search. Details should include: street, city, and provincial details as appropriate.</p><p>e.g. <code>200 Vesey St, New York, NY 10285</code></p>",
						"required": false,
						"type": "string"
					},
					{
						"name": "limit",
						"in": "query",
						"description": "<p>Limits the number of objects returned, up to the specified value.</p><p><em>Default: 100, <strong>Max:</strong> 100</em></p><p>e.g. <code>20</code></p>",
						"required": false,
						"type": "number"
					},
					{
						"name": "search_partial",
						"in": "query",
						"description": "<p><strong>Minimum of 3 characters required.</strong> Pass the partial search value to begin matching against possible Merchant Names.</p><p>e.g. <code>aoeu</code></p>",
						"required": false,
						"type": "string"
					}
				],
				"responses": {
					"200" : {
						"description": "<p>Request processed succesfully.</p><p>Upon a <span class='label label-success'>200</span>, description.",
						"headers": {
							"x-total-count": {
								"description": "Total number of Merchant names found within the specified search criteria.",
								"type": "number"
							},
							"x-amex-request-id": {
								"description": "The Unique ID sent with the Request.",
								"type": "number"
							}
						},
						"schema": {
							"type": "object",
							"properties": {
								"merchant_names": {
									"type": "array",
									"items": {
										"type": "string"
									}
								}
							}
						}
					},
					"500": {
						"description": "Internal Error. An error has occured within the American Express systems.",
						"headers": {
							"x-amex-request-id": {
								"description": "The Unique ID sent with the Request.",
								"type": "number"
							}
						},
						"schema": {
							"type": "object",
							"properties": {
								"error_code": {
									"type": "string",
									"maxLength": 6,
									"description": "<p>Detailed Error Code.</p><p>Please see <a href='#/essentials#errorcodes'>Standard Error Codes</a> for additional details.</p><p>e.g. <code>104010</code></p>"
									},
								"error_type": {
									"type": "string",
									"description": "<p>Brief error description.</p><p>e.g. <code>InvalidApiKey</code></p>"
									},
								"error_description": {
									"type": "string",
									"description": "<p>Human-friendly detailed error description.</p><p>e.g. <code>Invalid API Key identified on the gateway</code></p>"
									},
								"more_info": {
									"type": "string",
									"description": "<p>Additional information related to the error. This could include low-level error codes and information.</p><p>e.g. <code>INQ2002 Card is not eligible for the Program</code></p>"
								}
							}
						}
					}
				},
				"x-tryit": [
					{
						"name": "placeholder",
						"requestHeaders": "GET /api",
						"requestBody": "",
						"responseHeaders": "HTTP/1.1 200 Sucess<br />Content-Type: application/json;",
						"responseBody": {"json": "info"},
						"responseCode": "200",
						"responseMessage": "Success"
					}
				]
			}
		},
		"/merchants/v1/categories": {
			"get": {
				"summary": "summary",
				"description": "<p>TBD... probably just returns the full list of all Cats.</p>",
				"produces": [
					"application/json"
				],
				"parameters": [
					{
						"in": "header",
						"name": "x-amex-api-key",
						"description": "<p>Your application's Client Key for accessing this API.</p><p><em><a href='#/essentials#apisecurity'>Learn more about API Key security</a></em></p><p>e.g. <code>cOthV4ao4Xxho1BzrIXcOf8CTJXUONdj</code></p>",
						"required": true,
						"type": "string",
						"maxLength": 36
					},
					{
						"in": "header",
						"name": "x-amex-request-id",
						"description": "<p>Unique ID <strong>generated by the caller.</p><p>e.g. <code>AA3434342323</code></p>",
						"required": true,
						"type": "string"
					}
				],
				"responses": {
					"200" : {
						"description": "<p>Request processed succesfully.</p><p>Upon a <span class='label label-success'>200</span>, description.",
						"headers": {
							"x-total-count": {
								"description": "Total number of Merchant names found within the specified search criteria.",
								"type": "number"
							},
							"x-amex-request-id": {
								"description": "The Unique ID sent with the Request.",
								"type": "number"
							}
						},
						"schema": {
							"type": "object",
							"properties": {
								"merchant_names": {
									"type": "array",
									"items": {
										"type": "object"
									},
									"properties": {
										"level_1": {
											"type": "string",
											"description": "<p>First level category name.</p><p>e.g. <code>aoeu</code></p>"
										},
										"level_1_code": {
											"type": "string",
											"description": "<p>First level category code.</p><p>e.g. <code>aoeu</code></p>"
										},
										"level_2": {
											"type": "string",
											"description": "<p>Second level category name.</p><p>e.g. <code>aoeu</code></p>"
										},
										"level_2_code": {
											"type": "string",
											"description": "<p>Second level category code.</p><p>e.g. <code>aoeu</code></p>"
										},
										"level_3": {
											"type": "string",
											"description": "<p>Third level category name.</p><p>e.g. <code>aoeu</code></p>"
										},
										"level_3_code": {
											"type": "string",
											"description": "<p>Third level category code.</p><p>e.g. <code>aoeu</code></p>"
										}
									}
								}
							}
						}
					},
					"500": {
						"description": "Internal Error. An error has occured within the American Express systems.",
						"headers": {
							"x-amex-request-id": {
								"description": "The Unique ID sent with the Request.",
								"type": "number"
							}
						},
						"schema": {
							"type": "object",
							"properties": {
								"error_code": {
									"type": "string",
									"maxLength": 6,
									"description": "<p>Detailed Error Code.</p><p>Please see <a href='#/essentials#errorcodes'>Standard Error Codes</a> for additional details.</p><p>e.g. <code>104010</code></p>"
									},
								"error_type": {
									"type": "string",
									"description": "<p>Brief error description.</p><p>e.g. <code>InvalidApiKey</code></p>"
									},
								"error_description": {
									"type": "string",
									"description": "<p>Human-friendly detailed error description.</p><p>e.g. <code>Invalid API Key identified on the gateway</code></p>"
									},
								"more_info": {
									"type": "string",
									"description": "<p>Additional information related to the error. This could include low-level error codes and information.</p><p>e.g. <code>INQ2002 Card is not eligible for the Program</code></p>"
								}
							}
						}
					}
				},
				"x-tryit": [
					{
						"name": "placeholder",
						"requestHeaders": "GET /api",
						"requestBody": "",
						"responseHeaders": "HTTP/1.1 200 Sucess<br />Content-Type: application/json;",
						"responseBody": {"json": "info"},
						"responseCode": "200",
						"responseMessage": "Success"
					}
				]
			}
		}
	},
	"definitions": {},
	"x-testInfo": [
		{
			"categoryId": "agroupoftests",
			"categoryName": "A Group of tests cases",
			"description": "This is a group of similar test cases.",
			"elements": [
				{
					"name": "do something without payload",
					"method": "GET",
					"headers": "x-amex-api-key : A1W4LlXwgzH54HJFhihiPIKm4xdJARjk<br />x-amex-request-id: AA3434342323",
					"URI": "https://api.dev.aexp.com/servicing/v1/sample_template?radius_unit=MI&radius=5&address=20401%20N%2019th%20Ave%20Phoenix%20AZ&countryCode=US&state=AZ&postalCode=85027&limit=20 HTTP/1.1",
					"payload": ""
				},
				{
					"name": "do something with payload",
					"method": "POST",
					"headers": "x-amex-api-key : A1W4LlXwgzH54HJFhihiPIKm4xdJARjk<br />x-amex-request-id: AA3434342323",
					"URI": "https://api.dev.aexp.com/servicing/v1/sample_template?radius_unit=MI&radius=5&address=Bengaluru&offset=1&limit=20 HTTP/1.1",
					"payload": {"Things":[{"identity":{"name":"IDBI Bank","terminal_id":"1007957262"},"geolocation":{"latitude":"12.9634838","longitude":"77.5962219","distance":"0.5717"},"address":{"street":"Mission Road Branch(2Nd Cd)","city":"Bangalore Urban","state":"Karnataka","country_code":"IN","country_name":"INDIA"},"attributes":{"deposit_accepting":"N","no_fee":"N","wheelchair_access":"N","restricted_access":"N","braille_enabled":"N","pin":"N","chip":"N"}},{"identity":{"name":"IDBI Bank","terminal_id":"1007957261"},"geolocation":{"latitude":"12.9940901","longitude":"77.6183777","distance":"2.233"},"address":{"street":"Cox Town, Bangalore","city":"Bangalore Urban","state":"Karnataka","postal_code":"560005","country_code":"IN","country_name":"INDIA"},"attributes":{"deposit_accepting":"N","no_fee":"N","wheelchair_access":"N","restricted_access":"N","braille_enabled":"N","pin":"N","chip":"N"}},{"identity":{"name":"HDFC Bank","terminal_id":"1007974498"},"geolocation":{"latitude":"12.9588006","longitude":"77.6524939","distance":"3.9998"},"address":{"street":"Golden Towers  Airport Road Bangalore","city":"Bangalore","state":"Karnataka","postal_code":"560 017","country_code":"IN","country_name":"INDIA"},"attributes":{"deposit_accepting":"N","no_fee":"N","wheelchair_access":"N","restricted_access":"N","braille_enabled":"N","pin":"N","chip":"N"}},{"identity":{"name":"HDFC Bank","terminal_id":"1007974501"},"geolocation":{"latitude":"12.9588006","longitude":"77.6524939","distance":"3.9998"},"address":{"street":"Golden Towers  Airport Road Bangalore","city":"Bangalore","state":"Karnataka","postal_code":"560 017","country_code":"IN","country_name":"INDIA"},"attributes":{"deposit_accepting":"N","no_fee":"N","wheelchair_access":"N","restricted_access":"N","braille_enabled":"N","pin":"N","chip":"N"}},{"identity":{"name":"HDFC Bank","terminal_id":"1007974502"},"geolocation":{"latitude":"12.9588006","longitude":"77.6524939","distance":"3.9998"},"address":{"street":"Golden Towers  Airport Road Bangalore","city":"Bangalore","state":"Karnataka","postal_code":"560 017","country_code":"IN","country_name":"INDIA"},"attributes":{"deposit_accepting":"N","no_fee":"N","wheelchair_access":"N","restricted_access":"N","braille_enabled":"N","pin":"N","chip":"N"}},{"identity":{"name":"HDFC Bank","terminal_id":"1007974503"},"geolocation":{"latitude":"12.9588006","longitude":"77.6524939","distance":"3.9998"},"address":{"street":"Golden Towers Airport Road Bangalore","city":"Bangalore","state":"Karnataka","postal_code":"560 017","country_code":"IN","country_name":"INDIA"},"attributes":{"deposit_accepting":"N","no_fee":"N","wheelchair_access":"N","restricted_access":"N","braille_enabled":"N","pin":"N","chip":"N"}},{"identity":{"name":"HDFC Bank","terminal_id":"1007974506"},"geolocation":{"latitude":"12.9600332","longitude":"77.6560949","distance":"4.2196"},"address":{"street":"Shop No 14, Basement, Anjaneya Complex, Airport Road, Kodihalli","city":"Bangalore","state":"Karnataka","postal_code":"560017","country_code":"IN","country_name":"INDIA"},"attributes":{"deposit_accepting":"N","no_fee":"N","wheelchair_access":"N","restricted_access":"N","braille_enabled":"N","pin":"N","chip":"N"}},{"identity":{"name":"HDFC Bank","terminal_id":"1007974507"},"geolocation":{"latitude":"12.9600332","longitude":"77.6560949","distance":"4.2196"},"address":{"street":"Shop No 14, Basement, Anjaneya Complex, Airport Road, Kodihalli","city":"Bangalore","state":"Karnataka","postal_code":"560017","country_code":"IN","country_name":"INDIA"},"attributes":{"deposit_accepting":"N","no_fee":"N","wheelchair_access":"N","restricted_access":"N","braille_enabled":"N","pin":"N","chip":"N"}},{"identity":{"name":"IDBI Bank","terminal_id":"1007957350"},"geolocation":{"latitude":"12.9003239","longitude":"77.6040421","distance":"4.966"},"address":{"street":"Bilekhalli, Bangalore","city":"Bangalore Urban","state":"Karnataka","postal_code":"560076","country_code":"IN","country_name":"INDIA"},"attributes":{"deposit_accepting":"N","no_fee":"N","wheelchair_access":"N","restricted_access":"N","braille_enabled":"N","pin":"N","chip":"N"}}],"_links":[]}
				}
			]
		}
	]
}
