<?xml version="1.0" encoding="utf-8"?>
<!-- Generator: Adobe Illustrator 18.0.0, SVG Export Plug-In . SVG Version: 6.00 Build 0)  -->
<!DOCTYPE svg PUBLIC "-//W3C//DTD SVG 1.1//EN" "http://www.w3.org/Graphics/SVG/1.1/DTD/svg11.dtd">
<svg version="1.1" id="Layer_1" xmlns="http://www.w3.org/2000/svg" xmlns:xlink="http://www.w3.org/1999/xlink" x="0px" y="0px"
	 width="52px" height="52px" viewBox="0 0 52 52" enable-background="new 0 0 52 52" xml:space="preserve">
<g id="Twitter">
	<path d="M39.5354652,17.6042957c-0.9959984,0.4417152-2.066349,0.7403202-3.1898956,0.8745403
		c1.1467476-0.6873341,2.0273857-1.7757778,2.4420319-3.0727072c-1.0730667,0.6364775-2.2616882,1.0986929-3.5268021,1.3477964
		C34.2476921,15.6744719,32.8042603,15,31.2068977,15c-3.0673904,0-5.5540905,2.4867096-5.5540905,5.5538025
		c0,0.435339,0.0491238,0.8591633,0.1437874,1.2656879c-4.6158199-0.231596-8.7082081-2.4427052-11.4475002-5.8028965
		c-0.4780769,0.8202991-0.7519264,1.7743225-0.7519264,2.7921753c0,1.9268227,0.9805222,3.6267929,2.4707489,4.6227913
		c-0.9104156-0.0288162-1.7667885-0.2786922-2.5156212-0.6946926c-0.0003891,0.0232105-0.0004768,0.0464211-0.0004768,0.0698185
		c0,2.6909866,1.9144363,4.935751,4.4552002,5.44594c-0.4660873,0.1268654-0.9567375,0.1947517-1.4632416,0.1947517
		c-0.3578873,0-0.7058144-0.0348148-1.0449371-0.0996037c0.7067719,2.2064743,2.7578545,3.8122559,5.1881943,3.8571205
		c-1.9008102,1.4895515-4.2955627,2.3774414-6.8976288,2.3774414c-0.4482994,0-0.8904037-0.0262985-1.3248711-0.0775528
		C14.9224281,36.0805817,17.8417625,37,20.9781914,37c10.215744,0,15.8020363-8.4628906,15.8020363-15.8021832
		c0-0.2407875-0.0054092-0.4803047-0.0160522-0.7184772C37.8492355,19.6962719,38.7908859,18.7180672,39.5354652,17.6042957z"/>
	<g>
		<path d="M26,5c11.5794411,0,21,9.4205599,21,21s-9.4205589,21-21,21S5,37.5794373,5,26S14.4205589,5,26,5 M26,2
			C12.7451591,2,2,12.7451601,2,26s10.7451591,24,24,24c13.2548256,0,24-10.7451706,24-24S39.2548256,2,26,2L26,2z"/>
	</g>
</g>
</svg>
