<?xml version="1.0" encoding="utf-8"?>
<!-- Generator: Adobe Illustrator 18.0.0, SVG Export Plug-In . SVG Version: 6.00 Build 0)  -->
<!DOCTYPE svg PUBLIC "-//W3C//DTD SVG 1.1//EN" "http://www.w3.org/Graphics/SVG/1.1/DTD/svg11.dtd">
<svg version="1.1" id="Layer_1" xmlns="http://www.w3.org/2000/svg" xmlns:xlink="http://www.w3.org/1999/xlink" x="0px" y="0px"
	 width="52px" height="52px" viewBox="0 0 52 52" enable-background="new 0 0 52 52" xml:space="preserve">
<g id="_x35_7._Transportation">
	<g>
		<path d="M43.09863,22.38574l-2.92676-7.53076c-0.93164-2.43701-3.02637-3.83447-5.7666-3.83447h-2.40735
			C31.99799,11.01349,32,11.00702,32,11V8c0-1.65002-1.34998-3-3-3h-6c-1.65002,0-3,1.34998-3,3v3
			c0,0.00702,0.00201,0.01349,0.00208,0.02051h-2.42786c-2.70068,0-4.79346,1.39404-5.74268,3.82666L8.90088,22.3877
			C7.08545,23.04785,5.01221,24.98047,5,28.05957v11.41797c0,0.82812,0.67139,1.5,1.5,1.5H8v1.82227C8,45.11621,10.01855,47,12.5,47
			s4.5-1.88379,4.5-4.2002v-1.82227h18v1.82227C35,45.11621,37.01855,47,39.5,47s4.5-1.88379,4.5-4.2002v-1.82227h1.5
			c0.82812,0,1.5-0.67188,1.5-1.5V28.06055C47.00195,24.979,44.92285,23.04492,43.09863,22.38574z M23,8h6v3h-6V8z M14,42.7998
			C14,43.4502,13.31299,44,12.5,44S11,43.4502,11,42.7998V41h3V42.7998z M41,42.7998C41,43.4502,40.31348,44,39.5,44
			S38,43.4502,38,42.7998V41h3V42.7998z M44,37.97754H8v-9.91211c0.0083-2.02881,1.71826-2.87354,2.20117-2.93164
			c0.54932-0.06641,1.01807-0.42969,1.21826-0.9458l3.20752-8.25195c0.50293-1.28906,1.4668-1.91553,2.96777-1.91553h16.83105
			c1.49023,0,2.45312,0.62354,2.94629,1.91357l3.20801,8.25391c0.20117,0.5166,0.66992,0.88037,1.2207,0.9458
			c0.48535,0.05811,2.2002,0.90088,2.19922,2.92578v9.91797H44z"/>
		<path d="M37.16016,24.84326c0.2793-0.40869,0.33887-0.9292,0.15918-1.39062l-1.59375-4.09375
			c-0.01562-0.04053-0.03223-0.07959-0.05176-0.11816c-0.2959-0.60156-1.08203-2.19922-3.06543-2.2251H19.48047
			c-1.99902,0.02637-2.74902,1.47363-3.10938,2.16943c-0.02051,0.03955-0.03906,0.08008-0.05566,0.12158l-1.68799,4.12158
			c-0.18945,0.4624-0.13574,0.98926,0.14258,1.4043c0.27881,0.41504,0.74561,0.66406,1.24561,0.66406h19.90625
			C36.41699,25.49658,36.88086,25.25195,37.16016,24.84326z M18.25098,22.49658l0.81348-1.98828
			c0.20703-0.39062,0.29785-0.47168,0.30078-0.47656c0.00098,0,0.04199-0.01465,0.13477-0.01611l13.14062-0.00146
			c0.02441,0.01709,0.11719,0.10303,0.31445,0.49561l0.77344,1.98682H18.25098V22.49658z"/>
		<path d="M14.00018,30C12.89136,30.00366,11.99481,30.89819,12,32.00903C11.99512,33.10577,12.89166,33.99969,14.00018,34
			c1.10181-0.00031,1.9978-0.89423,1.99982-1.99097C15.99799,30.89844,15.10199,30.00397,14.00018,30z"/>
		<path d="M38.00018,30C36.89136,30.00366,35.99481,30.89819,36,32.00903C35.99512,33.10577,36.89166,33.99969,38.00018,34
			c1.10181-0.00031,1.9978-0.89423,1.99982-1.99097C39.99799,30.89844,39.10199,30.00397,38.00018,30z"/>
	</g>
</g>
</svg>
