<?xml version="1.0" encoding="utf-8"?>
<!-- Generator: Adobe Illustrator 18.0.0, SVG Export Plug-In . SVG Version: 6.00 Build 0)  -->
<!DOCTYPE svg PUBLIC "-//W3C//DTD SVG 1.1//EN" "http://www.w3.org/Graphics/SVG/1.1/DTD/svg11.dtd">
<svg version="1.1" id="Layer_1" xmlns="http://www.w3.org/2000/svg" xmlns:xlink="http://www.w3.org/1999/xlink" x="0px" y="0px"
	 width="52px" height="52px" viewBox="0 0 52 52" enable-background="new 0 0 52 52" xml:space="preserve">
<g id="_x32_._Account">
	<g>
		<rect x="46.99907" y="44.24921" width="0.00174" height="0.00048"/>
		<path d="M26.26726,8.5c2.35785,0,6.35734,0.8845,6.65186,6.80829l0.00553,0.10035l0.0102,0.0915
			c0.22064,1.97886,0.15321,7.649-2.76939,10.08944l-1.26689,1.05787l0.21537,1.63636
			c0.06321,0.4802,0.14087,0.77583,0.19758,0.99167l0.01178,0.0455c0.60531,3.04465,1.49481,4.68154,2.96102,5.44878
			c0.33803,0.18279,4.57888,2.48103,8.97138,5.08591c1.92007,1.12306,2.46107,2.06325,2.66128,3.64431H8.05875
			c0.20709-1.54804,0.76803-2.52468,2.67142-3.6535c4.37527-2.59467,8.61195-4.89154,8.95411-5.07664
			c1.69517-0.88645,2.39718-2.79526,2.91145-5.38739c0.01511-0.055,0.0279-0.09933,0.03955-0.13982
			c0.06042-0.21011,0.1047-0.36371,0.18314-0.74337l0.36333-1.75869l-1.37845-1.15101
			c-2.9226-2.44044-2.99002-8.11057-2.77032-10.08138l0.01167-0.09967l0.00499-0.10024
			c0.10176-2.04706,0.95451-6.80831,6.6606-6.80827c0.04776,0,0.08479,0.00059,0.10705,0.00165l0.16549,0.00863l0.15985-0.00814
			C26.16966,8.50076,26.21182,8.5,26.26726,8.5 M26.26727,5.5c-0.12723,0-0.22301,0.00315-0.28283,0.00631
			C25.92799,5.50316,25.83484,5.5,25.71024,5.5c-1.69329-0.00001-9.20563,0.58231-9.65692,9.65931
			c0,0-1.01728,8.68785,3.82712,12.73301c-0.08357,0.40455-0.11168,0.44306-0.20857,0.8108
			c-0.24219,1.24119-0.6634,3.04688-1.39009,3.41461c0,0-4.43126,2.39044-9.08186,5.14839
			C6.05412,39.13175,5.20884,41.16541,5,43.93815C5.15275,45.3758,6.35601,46.5,7.83527,46.5h36.2989
			c1.48532,0,2.69231-1.1334,2.83702-2.57955c-0.20406-2.76366-1.01797-4.79265-4.20085-6.65432
			c-4.65049-2.75795-9.08339-5.14839-9.08339-5.14839c-0.72669-0.36774-1.19465-2.2203-1.43696-3.46149
			c-0.0625-0.25-0.11331-0.3963-0.1617-0.76392c4.8444-4.04516,3.82713-12.73301,3.82713-12.73301
			C35.46416,6.08291,27.99453,5.5,26.26727,5.5L26.26727,5.5z"/>
	</g>
</g>
</svg>
