<?xml version="1.0" encoding="utf-8"?>
<!-- Generator: Adobe Illustrator 18.0.0, SVG Export Plug-In . SVG Version: 6.00 Build 0)  -->
<!DOCTYPE svg PUBLIC "-//W3C//DTD SVG 1.1//EN" "http://www.w3.org/Graphics/SVG/1.1/DTD/svg11.dtd">
<svg version="1.1" id="Layer_1" xmlns="http://www.w3.org/2000/svg" xmlns:xlink="http://www.w3.org/1999/xlink" x="0px" y="0px"
	 width="52px" height="52px" viewBox="0 0 52 52" enable-background="new 0 0 52 52" xml:space="preserve">
<g id="_x34_2._Check">
	<path d="M17.57422,41.57422c-0.36328,0-0.72754-0.13086-1.0166-0.39648c-0.60938-0.56152-0.64844-1.51074-0.08691-2.12012
		l25.92578-28.14795c0.5625-0.60889,1.50977-0.64746,2.12012-0.0874c0.60938,0.56152,0.64844,1.51025,0.08691,2.11963
		L18.67773,41.09082C18.38184,41.41113,17.97852,41.57422,17.57422,41.57422z"/>
	<path d="M17.57422,41.57422c-0.38379,0-0.76758-0.14648-1.06055-0.43945L2.43945,27.06055
		c-0.58594-0.58545-0.58594-1.53564,0-2.12109c0.58594-0.58594,1.53516-0.58594,2.12109,0l14.07422,14.07422
		c0.58594,0.58594,0.58594,1.53516,0,2.12109C18.3418,41.42773,17.95801,41.57422,17.57422,41.57422z"/>
</g>
</svg>
