<?xml version="1.0" encoding="utf-8"?>
<!-- Generator: Adobe Illustrator 18.0.0, SVG Export Plug-In . SVG Version: 6.00 Build 0)  -->
<!DOCTYPE svg PUBLIC "-//W3C//DTD SVG 1.1//EN" "http://www.w3.org/Graphics/SVG/1.1/DTD/svg11.dtd">
<svg version="1.1" id="Layer_1" xmlns="http://www.w3.org/2000/svg" xmlns:xlink="http://www.w3.org/1999/xlink" x="0px" y="0px"
	 width="52px" height="52px" viewBox="0 0 52 52" enable-background="new 0 0 52 52" xml:space="preserve">
<g id="_x31_2._Warning">
	<path d="M26,11c0.57956,0,1.11507,0.27114,1.40486,0.71129l8.93891,13.57742l8.9389,13.57744
		c0.28976,0.44015,0.28976,0.98243,0,1.42256C44.99289,40.72886,44.45737,41,43.87781,41H26H8.12219
		c-0.57956,0-1.11508-0.27114-1.40486-0.71129c-0.28976-0.44014-0.28976-0.98241,0-1.42256l8.9389-13.57744l8.93891-13.57742
		C24.88493,11.27114,25.42044,11,26,11 M26,8c-1.59876,0-3.06065,0.77069-3.91055,2.06159l-8.93894,13.57745l-8.9389,13.57744
		c-0.94421,1.43427-0.94421,3.28769-0.00003,4.72187C5.06154,43.22931,6.52343,44,8.12219,44H26h17.87781
		c1.59876,0,3.06065-0.77069,3.91055-2.06159c0.94424-1.43425,0.94424-3.28766,0.00006-4.72186l-8.93894-13.57751l-8.93891-13.57743
		C29.06065,8.77069,27.59876,8,26,8L26,8z"/>
	<circle cx="26" cy="36.5" r="1.75"/>
	<path d="M26,33c-0.82812,0-1.5-0.67188-1.5-1.5v-14c0-0.82861,0.67188-1.5,1.5-1.5s1.5,0.67139,1.5,1.5v14
		C27.5,32.32812,26.82812,33,26,33z"/>
</g>
</svg>
