<?xml version="1.0" encoding="utf-8"?>
<!-- Generator: Adobe Illustrator 18.0.0, SVG Export Plug-In . SVG Version: 6.00 Build 0)  -->
<!DOCTYPE svg PUBLIC "-//W3C//DTD SVG 1.1//EN" "http://www.w3.org/Graphics/SVG/1.1/DTD/svg11.dtd">
<svg version="1.1" id="Layer_1" xmlns="http://www.w3.org/2000/svg" xmlns:xlink="http://www.w3.org/1999/xlink" x="0px" y="0px"
	 width="52px" height="52px" viewBox="0 0 52 52" enable-background="new 0 0 52 52" xml:space="preserve">
<g id="_x35_2._Processing">
	<g>
		<path d="M8,26c0-9.92523,8.07477-18,18-18c5.72516,0,10.82904,2.69128,14.12787,6.87036l-2.3324,0.00134
			c-0.82739,0.00262-1.50055,0.67267-1.49884,1.50073c-0.00012,0.82874,0.67163,1.49969,1.50037,1.49933l6.00006-0.00348
			c0.073-0.00012,0.14429-0.00543,0.21484-0.01562c0.72687-0.10455,1.28516-0.72949,1.284-1.48511l-0.00299-6.00018
			c0.00018-0.82825-0.67163-1.49969-1.50031-1.49933c-0.82544,0.00281-1.49976,0.67157-1.49884,1.50073l0.00122,2.40552
			C38.44562,8.03528,32.58136,5,26,5C14.40198,5,5,14.40198,5,26c0,0.82843,0.67157,1.5,1.5,1.5S8,26.82843,8,26z"/>
		<path d="M45.5,24.5c-0.82843,0-1.5,0.67157-1.5,1.5c0,9.92523-8.07477,18-18,18c-5.72516,0-10.82904-2.69128-14.12787-6.87036
			l2.3324-0.00134c0.82739-0.00262,1.50055-0.67273,1.49884-1.50073c0.00012-0.8288-0.67163-1.49976-1.50037-1.49939
			l-6.00006,0.00348c-0.073,0.00018-0.14429,0.00549-0.21484,0.01562c-0.72687,0.10461-1.28516,0.72955-1.284,1.48511
			l0.00299,6.00018c-0.00018,0.82831,0.67163,1.49976,1.50031,1.49939c0.82544-0.00281,1.49976-0.67163,1.49884-1.50073
			l-0.00122-2.40552C13.55438,43.96472,19.41864,47,26,47c11.59802,0,21-9.40198,21-21C47,25.17157,46.32843,24.5,45.5,24.5z"/>
	</g>
</g>
</svg>
