<?xml version="1.0" encoding="utf-8"?>
<!-- Generator: Adobe Illustrator 18.0.0, SVG Export Plug-In . SVG Version: 6.00 Build 0)  -->
<!DOCTYPE svg PUBLIC "-//W3C//DTD SVG 1.1//EN" "http://www.w3.org/Graphics/SVG/1.1/DTD/svg11.dtd">
<svg version="1.1" id="Layer_1" xmlns="http://www.w3.org/2000/svg" xmlns:xlink="http://www.w3.org/1999/xlink" x="0px" y="0px"
	 width="52px" height="52px" viewBox="0 0 52 52" enable-background="new 0 0 52 52" xml:space="preserve">
<g id="Offers_Mobile">
	<g>
		<path d="M41.536133,32.095703c-0.77832-0.293945-1.640625,0.101562-1.930664,0.87793
			c-0.291016,0.775391,0.102539,1.640625,0.87793,1.930664C43.600586,36.072266,44,37.398438,44,38.422852
			C44,40.697266,36.988281,44,26,44S8,40.697266,8,38.422852c0-1.023438,0.399414-2.348633,3.51416-3.517578
			c0.775879-0.291016,1.168457-1.155273,0.877441-1.931641c-0.291016-0.775391-1.158203-1.169922-1.931152-0.876953
			C6.836914,33.456055,5,35.583984,5,38.422852C5,42.685547,12.213379,47,26,47c13.787109,0,21-4.314453,21-8.577148
			C47,35.583008,45.162109,33.454102,41.536133,32.095703z"/>
		<path d="M27.256165,28.493225c0.681885-0.687195,0.645996-1.80835-0.035889-2.495544
			c-0.681946-0.687195-1.794495-0.651062-2.47644,0.036133c-0.681885,0.687195-0.645996,1.808411,0.035889,2.495605
			C25.497559,29.18042,26.610107,29.144287,27.256165,28.493225z"/>
		<path d="M15.298828,31.540039l9.116211,5.985352C24.886719,37.835938,25.43457,38,26,38
			c0.571289,0,1.123047-0.166992,1.595703-0.481445l9.120117-6.049805c0.164062-0.109375,0.314453-0.233398,0.435547-0.356445
			C37.69043,30.577148,38,29.833984,38,29.074219V7.877441C38,6.291016,36.707031,5,35.117188,5H16.882812
			c-0.768555,0-1.492188,0.29834-2.037109,0.841797C14.300293,6.385742,14,7.108887,14,7.877441v21.258301
			C14,30.107422,14.48584,31.006836,15.298828,31.540039z M17,8h18v21.006836l-9,5.970703l-9-5.90918V8z"/>
	</g>
</g>
</svg>
