<?xml version="1.0" encoding="utf-8"?>
<!-- Generator: Adobe Illustrator 18.0.0, SVG Export Plug-In . SVG Version: 6.00 Build 0)  -->
<!DOCTYPE svg PUBLIC "-//W3C//DTD SVG 1.1//EN" "http://www.w3.org/Graphics/SVG/1.1/DTD/svg11.dtd">
<svg version="1.1" id="Layer_1" xmlns="http://www.w3.org/2000/svg" xmlns:xlink="http://www.w3.org/1999/xlink" x="0px" y="0px"
	 width="52px" height="52px" viewBox="0 0 52 52" enable-background="new 0 0 52 52" xml:space="preserve">
<g id="Tablet">
	<g>
		<path d="M40.78003,2H11.21997C9.44421,2,8,3.44952,8,5.2323v41.53589C8,48.54993,9.44421,50,11.21997,50h29.56006
			C42.55524,50,44,48.55048,44,46.76819V5.2323C44,3.45007,42.55524,2,40.78003,2z M41,46.76819
			C41,46.89386,40.89929,47,40.78003,47H11.21997C11.10071,47,11,46.89386,11,46.76819V5.2323C11,5.10638,11.10071,5,11.21997,5
			h29.56006C40.89929,5,41,5.10638,41,5.2323V46.76819z"/>
		<path d="M35.85339,8H16.14661C14.96283,8,14,8.99658,14,10.22223v28.55591C14,40.00305,14.96283,41,16.14661,41H35.8534
			C37.03687,41,38,40.00342,38,38.77814V10.22223C38,8.99689,37.03687,8,35.85339,8z M35,38H17V11h18V38z"/>
		<circle cx="26" cy="44" r="1.5"/>
	</g>
</g>
</svg>
