[
    {"prodName":"Access Lounge",
    "pvtCtgyId":"PUBLIC",
    "prodId":"820",
    "prodLocTx":"NA",
    "prodType":"BUSINESSOAUTH",
    "apProdList":["AmericanExpress.com_rupal_28_A2A^oAuth","AccountsReceivable-U.S._bhbbb^oAuth","AmericanExpress.com_sonam_A2A^oAuth"],
    "orgId":1045,
    "prodDs":"Loyalty Access product provides functionality to check eligibility for Access to various events and places or Lounges"}
]