<?xml version="1.0" encoding="utf-8"?>
<!-- Generator: Adobe Illustrator 18.0.0, SVG Export Plug-In . SVG Version: 6.00 Build 0)  -->
<!DOCTYPE svg PUBLIC "-//W3C//DTD SVG 1.1//EN" "http://www.w3.org/Graphics/SVG/1.1/DTD/svg11.dtd">
<svg version="1.1" id="Layer_1" xmlns="http://www.w3.org/2000/svg" xmlns:xlink="http://www.w3.org/1999/xlink" x="0px" y="0px"
	 width="52px" height="52px" viewBox="0 0 52 52" enable-background="new 0 0 52 52" xml:space="preserve">
<g id="_x35_5._Merchandise_x2F_Supplies_x2F_Shopping-filled">
	<path d="M41.00006,14c0-1.65002-1.35004-3-3-3H35c0-4.9624-4.03711-9-9-9s-9,4.0376-9,9h-3c-1.65002,0-3,1.34998-3,3L8,47
		c0,1.64996,1.34998,3,3,3h30.00006c1.64996,0,3-1.35004,3-3L41.00006,14z M26,5c3.30859,0,6,2.69141,6,6H20
		C20,7.69141,22.69141,5,26,5z"/>
</g>
</svg>
