<?xml version="1.0" encoding="utf-8"?>
<!-- Generator: Adobe Illustrator 18.0.0, SVG Export Plug-In . SVG Version: 6.00 Build 0)  -->
<!DOCTYPE svg PUBLIC "-//W3C//DTD SVG 1.1//EN" "http://www.w3.org/Graphics/SVG/1.1/DTD/svg11.dtd">
<svg version="1.1" id="Layer_1" xmlns="http://www.w3.org/2000/svg" xmlns:xlink="http://www.w3.org/1999/xlink" x="0px" y="0px"
	 width="52px" height="52px" viewBox="0 0 52 52" enable-background="new 0 0 52 52" xml:space="preserve">
<g id="Tablet-filled">
	<path d="M40.78003,2H11.21997C9.44421,2,8,3.44952,8,5.2323v41.53589C8,48.54993,9.44421,50,11.21997,50h29.56006
		C42.55524,50,44,48.55048,44,46.76819V5.2323C44,3.45007,42.55524,2,40.78003,2z M26,45.5c-0.82843,0-1.5-0.67157-1.5-1.5
		s0.67157-1.5,1.5-1.5s1.5,0.67157,1.5,1.5S26.82843,45.5,26,45.5z M37,37.4801c0,1.11395-0.88287,2.0199-1.96771,2.0199H16.96777
		C15.88257,39.5,15,38.59369,15,37.4801V11.5202C15,10.40594,15.88257,9.5,16.96777,9.5h18.06451
		C36.11713,9.5,37,10.40631,37,11.5202V37.4801z"/>
</g>
</svg>
