<?xml version="1.0" encoding="utf-8"?>
<!-- Generator: Adobe Illustrator 18.0.0, SVG Export Plug-In . SVG Version: 6.00 Build 0)  -->
<!DOCTYPE svg PUBLIC "-//W3C//DTD SVG 1.1//EN" "http://www.w3.org/Graphics/SVG/1.1/DTD/svg11.dtd">
<svg version="1.1" id="Layer_1" xmlns="http://www.w3.org/2000/svg" xmlns:xlink="http://www.w3.org/1999/xlink" x="0px" y="0px"
	 width="52px" height="52px" viewBox="0 0 52 52" enable-background="new 0 0 52 52" xml:space="preserve">
<g id="_x39_._Home-filled">
	<path d="M46.24316,24.95947L27.76172,5.76465c-0.88672-0.97266-2.66504-0.94043-3.49316-0.03027L5.72852,24.98975
		c-0.63477,0.6958-0.79883,1.70215-0.41699,2.56982c0.38184,0.86035,1.23633,1.41602,2.17676,1.41602H12v15.6582
		c0,1.31348,1.06836,2.38184,2.38184,2.38184H21.5c0.82812,0,1.5-0.67188,1.5-1.5h0.00232L23.00391,38H29v7.51562
		c0,0.82812,0.67188,1.5,1.5,1.5h7.11816c1.31348,0,2.38184-1.06836,2.38184-2.38184v-15.6582h4.51172
		c0.94043,0,1.79492-0.55566,2.17969-1.42188C47.07031,26.69189,46.90625,25.68555,46.24316,24.95947z"/>
</g>
</svg>
